D Appendix D Coronavirus | Data Analysis for Researchers
…
coronavirus_tv <- read_csv("https://github.com/RamiKrispin/coronavirus/raw/master/csv/coronavirus.csv")

## Rows: 846888 Columns: 15
## ── Column specification ────────────────────────────────────────────────────────────────
## Delimiter: ","
## chr  (8): province, country, type, iso2, iso3, combined_key, continent_name,...
## dbl  (6): lat, long, cases, uid, code3, population
## date (1): date
## 
## ℹ Use `spec()` to retrieve the full column specification for this data.
## ℹ Specify the column types or set `show_col_types = FALSE` to quiet this message.

coronavirus_tv

## # A tibble: 846,888 × 15
##    date       province country   lat  long type    cases   uid iso2  iso3  code3
##    <date>     <chr>    <chr>   <dbl> <dbl> <chr>   <dbl> <dbl> <chr> <chr> <dbl>
##  1 2020-01-22 Alberta  Canada   53.9 -117. confir…     0 12401 CA    CAN     124
##  2 2020-01-23 Alberta  Canada   53.9 -117. confir…     0 12401 CA    CAN     124
##  3 2020-01-24 Alberta  Canada   53.9 -117. confir…     0 12401 CA    CAN     124
##  4 2020-01-25 Alberta  Canada   53.9 -117. confir…     0 12401 CA    CAN     124
##  5 2020-01-26 Alberta  Canada   53.9 -117. confir…     0 12401 CA    CAN     124
##  6 2020-01-27 Alberta  Canada   53.9 -117. confir…     0 12401 CA    CAN     124
##  7 2020-01-28 Alberta  Canada   53.9 -117. confir…     0 12401 CA    CAN     124
##  8 2020-01-29 Alberta  Canada   53.9 -117. confir…     0 12401 CA    CAN     124
##  9 2020-01-30 Alberta  Canada   53.9 -117. confir…     0 12401 CA    CAN     124
## 10 2020-01-31 Alberta  Canada   53.9 -117. confir…     0 12401 CA    CAN     124
## # … with 846,878 more rows, and 4 more variables: combined_key <chr>,
## #   population <dbl>, continent_name <chr>, continent_code <chr>
…
one_of()
Columns whose name appear in the given set
select(babynames, one_of(c(“sex”, “gender”)))

starts_with()
Columns that starts with a string
select(babynames, starts_with(“n”))

df_tv <- select(coronavirus_tv, c(date, country, type, cases, population))
df_tv

## # A tibble: 846,888 × 5
##    date       country type      cases population
##    <date>     <chr>   <chr>     <dbl>      <dbl>
##  1 2020-01-22 Canada  confirmed     0    4413146
##  2 2020-01-23 Canada  confirmed     0    4413146
##  3 2020-01-24 Canada  confirmed     0    4413146
##  4 2020-01-25 Canada  confirmed     0    4413146
##  5 2020-01-26 Canada  confirmed     0    4413146
##  6 2020-01-27 Canada  confirmed     0    4413146
##  7 2020-01-28 Canada  confirmed     0    4413146
##  8 2020-01-29 Canada  confirmed     0    4413146
##  9 2020-01-30 Canada  confirmed     0    4413146
## 10 2020-01-31 Canada  confirmed     0    4413146
## # … with 846,878 more rows
…
confirmedraw # %>% datatable() # Check latest date at the end of data as tibble

## # A tibble: 289 × 998
##    Provin…¹ Count…²   Lat   Long 1/22/…³ 1/23/…⁴ 1/24/…⁵ 1/25/…⁶ 1/26/…⁷ 1/27/…⁸
##    <chr>    <chr>   <dbl>  <dbl>   <dbl>   <dbl>   <dbl>   <dbl>   <dbl>   <dbl>
##  1 <NA>     Afghan…  33.9  67.7        0       0       0       0       0       0
##  2 <NA>     Albania  41.2  20.2        0       0       0       0       0       0
##  3 <NA>     Algeria  28.0   1.66       0       0       0       0       0       0
##  4 <NA>     Andorra  42.5   1.52       0       0       0       0       0       0
##  5 <NA>     Angola  -11.2  17.9        0       0       0       0       0       0
##  6 <NA>     Antarc… -71.9  23.3        0       0       0       0       0       0
##  7 <NA>     Antigu…  17.1 -61.8        0       0       0       0       0       0
##  8 <NA>     Argent… -38.4 -63.6        0       0       0       0       0       0
##  9 <NA>     Armenia  40.1  45.0        0       0       0       0       0       0
## 10 Austral… Austra… -35.5 149.         0       0       0       0       0       0
## # … with 279 more rows, 988 more variables: `1/28/20` <dbl>, `1/29/20` <dbl>,
## #   `1/30/20` <dbl>, `1/31/20` <dbl>, `2/1/20` <dbl>, `2/2/20` <dbl>,
## #   `2/3/20` <dbl>, `2/4/20` <dbl>, `2/5/20` <dbl>, `2/6/20` <dbl>,
## #   `2/7/20` <dbl>, `2/8/20` <dbl>, `2/9/20` <dbl>, `2/10/20` <dbl>,
## #   `2/11/20` <dbl>, `2/12/20` <dbl>, `2/13/20` <dbl>, `2/14/20` <dbl>,
## #   `2/15/20` <dbl>, `2/16/20` <dbl>, `2/17/20` <dbl>, `2/18/20` <dbl>,
## #   `2/19/20` <dbl>, `2/20/20` <dbl>, `2/21/20` <dbl>, `2/22/20` <dbl>, …

deathsraw <- read_csv("https://raw.githubusercontent.com/CSSEGISandData/COVID-19/master/csse_covid_19_data/csse_covid_19_time_series/time_series_covid19_deaths_global.csv")

## Rows: 289 Columns: 998
## ── Column specification ────────────────────────────────────────────────────────────────
## Delimiter: ","
## chr   (2): Province/State, Country/Region
## dbl (996): Lat, Long, 1/22/20, 1/23/20, 1/24/20, 1/25/20, 1/26/20, 1/27/20, ...
## 
## ℹ Use `spec()` to retrieve the full column specification for this data.
## ℹ Specify the column types or set `show_col_types = FALSE` to quiet this message.

deathsraw # %>% datatable()

## # A tibble: 289 × 998
##    Provin…¹ Count…²   Lat   Long 1/22/…³ 1/23/…⁴ 1/24/…⁵ 1/25/…⁶ 1/26/…⁷ 1/27/…⁸
##    <chr>    <chr>   <dbl>  <dbl>   <dbl>   <dbl>   <dbl>   <dbl>   <dbl>   <dbl>
##  1 <NA>     Afghan…  33.9  67.7        0       0       0       0       0       0
##  2 <NA>     Albania  41.2  20.2        0       0       0       0       0       0
##  3 <NA>     Algeria  28.0   1.66       0       0       0       0       0       0
##  4 <NA>     Andorra  42.5   1.52       0       0       0       0       0       0
##  5 <NA>     Angola  -11.2  17.9        0       0       0       0       0       0
##  6 <NA>     Antarc… -71.9  23.3        0       0       0       0       0       0
##  7 <NA>     Antigu…  17.1 -61.8        0       0       0       0       0       0
##  8 <NA>     Argent… -38.4 -63.6        0       0       0       0       0       0
##  9 <NA>     Armenia  40.1  45.0        0       0       0       0       0       0
## 10 Austral… Austra… -35.5 149.         0       0       0       0       0       0
## # … with 279 more rows, 988 more variables: `1/28/20` <dbl>, `1/29/20` <dbl>,
## #   `1/30/20` <dbl>, `1/31/20` <dbl>, `2/1/20` <dbl>, `2/2/20` <dbl>,
## #   `2/3/20` <dbl>, `2/4/20` <dbl>, `2/5/20` <dbl>, `2/6/20` <dbl>,
## #   `2/7/20` <dbl>, `2/8/20` <dbl>, `2/9/20` <dbl>, `2/10/20` <dbl>,
## #   `2/11/20` <dbl>, `2/12/20` <dbl>, `2/13/20` <dbl>, `2/14/20` <dbl>,
## #   `2/15/20` <dbl>, `2/16/20` <dbl>, `2/17/20` <dbl>, `2/18/20` <dbl>,
## #   `2/19/20` <dbl>, `2/20/20` <dbl>, `2/21/20` <dbl>, `2/22/20` <dbl>, …

recoveredraw <- read_csv("https://raw.githubusercontent.com/CSSEGISandData/COVID-19/master/csse_covid_19_data/csse_covid_19_time_series/time_series_covid19_recovered_global.csv")

## Rows: 274 Columns: 998
## ── Column specification ────────────────────────────────────────────────────────────────
## Delimiter: ","
## chr   (2): Province/State, Country/Region
## dbl (996): Lat, Long, 1/22/20, 1/23/20, 1/24/20, 1/25/20, 1/26/20, 1/27/20, ...
## 
## ℹ Use `spec()` to retrieve the full column specification for this data.
## ℹ Specify the column types or set `show_col_types = FALSE` to quiet this message.

recoveredraw # %>% datatable()

## # A tibble: 274 × 998
##    Provin…¹ Count…²   Lat   Long 1/22/…³ 1/23/…⁴ 1/24/…⁵ 1/25/…⁶ 1/26/…⁷ 1/27/…⁸
##    <chr>    <chr>   <dbl>  <dbl>   <dbl>   <dbl>   <dbl>   <dbl>   <dbl>   <dbl>
##  1 <NA>     Afghan…  33.9  67.7        0       0       0       0       0       0
##  2 <NA>     Albania  41.2  20.2        0       0       0       0       0       0
##  3 <NA>     Algeria  28.0   1.66       0       0       0       0       0       0
##  4 <NA>     Andorra  42.5   1.52       0       0       0       0       0       0
##  5 <NA>     Angola  -11.2  17.9        0       0       0       0       0       0
##  6 <NA>     Antarc… -71.9  23.3        0       0       0       0       0       0
##  7 <NA>     Antigu…  17.1 -61.8        0       0       0       0       0       0
##  8 <NA>     Argent… -38.4 -63.6        0       0       0       0       0       0
##  9 <NA>     Armenia  40.1  45.0        0       0       0       0       0       0
## 10 Austral… Austra… -35.5 149.         0       0       0       0       0       0
## # … with 264 more rows, 988 more variables: `1/28/20` <dbl>, `1/29/20` <dbl>,
## #   `1/30/20` <dbl>, `1/31/20` <dbl>, `2/1/20` <dbl>, `2/2/20` <dbl>,
## #   `2/3/20` <dbl>, `2/4/20` <dbl>, `2/5/20` <dbl>, `2/6/20` <dbl>,
## #   `2/7/20` <dbl>, `2/8/20` <dbl>, `2/9/20` <dbl>, `2/10/20` <dbl>,
## #   `2/11/20` <dbl>, `2/12/20` <dbl>, `2/13/20` <dbl>, `2/14/20` <dbl>,
## #   `2/15/20` <dbl>, `2/16/20` <dbl>, `2/17/20` <dbl>, `2/18/20` <dbl>,
## #   `2/19/20` <dbl>, `2/20/20` <dbl>, `2/21/20` <dbl>, `2/22/20` <dbl>, …
…
D.5.2.2 Final data: combine all three

coronavirus_jhu <- full_join(confirmed, deaths) %>% full_join(recovered) %>%
  pivot_longer(c(confirmed, death, recovered), names_to = "cases") %>%
  arrange(cases, province, country, date)

## Joining, by = c("date", "province", "country", "lat", "long")
## Joining, by = c("date", "province", "country", "lat", "long")

coronavirus_jhu  # %>% datatable()

## # A tibble: 878,805 × 7
## # Groups:   country, province [290]
##    date       province country   lat  long cases     value
##    <date>     <chr>    <chr>   <dbl> <dbl> <chr>     <dbl>
##  1 2020-01-23 Alberta  Canada   53.9 -117. confirmed     0
##  2 2020-01-24 Alberta  Canada   53.9 -117. confirmed     0
##  3 2020-01-25 Alberta  Canada   53.9 -117. confirmed     0
##  4 2020-01-26 Alberta  Canada   53.9 -117. confirmed     0
##  5 2020-01-27 Alberta  Canada   53.9 -117. confirmed     0
##  6 2020-01-28 Alberta  Canada   53.9 -117. confirmed     0
##  7 2020-01-29 Alberta  Canada   53.9 -117. confirmed     0
##  8 2020-01-30 Alberta  Canada   53.9 -117. confirmed     0
##  9 2020-01-31 Alberta  Canada   53.9 -117. confirmed     0
## 10 2020-02-01 Alberta  Canada   53.9 -117. confirmed     0
## # … with 878,795 more rows

D.5.3 Aggregated by Countries

The list of countries classified in provinces.

coronavirus_jhu %>% filter(!is.na(province)) %>% distinct(country)

## # A tibble: 91 × 2
## # Groups:   country, province [91]
##    province                         country       
##    <chr>                            <chr>         
##  1 Alberta                          Canada        
##  2 Anguilla                         United Kingdom
##  3 Anhui                            China         
##  4 Aruba                            Netherlands   
##  5 Australian Capital Territory     Australia     
##  6 Beijing                          China         
##  7 Bermuda                          United Kingdom
##  8 Bonaire, Sint Eustatius and Saba Netherlands   
##  9 British Columbia                 Canada        
## 10 British Virgin Islands           United Kingdom
## # … with 81 more rows
Check the data associated with provinces.

If we are only interested in coutries, the following is a possibility.

coronavirus_jhu_country <- coronavirus_jhu %>% 
  group_by(date, country, cases) %>% 
  summarize(value = sum(value)) %>% 
  arrange(cases, country, date)

## `summarise()` has grouped output by 'date', 'country'. You can override using the
## `.groups` argument.

coronavirus_jhu_country # %>% datatable()

## # A tibble: 598,779 × 4
## # Groups:   date, country [199,593]
##    date       country     cases     value
##    <date>     <chr>       <chr>     <dbl>
##  1 2020-01-23 Afghanistan confirmed     0
##  2 2020-01-24 Afghanistan confirmed     0
##  3 2020-01-25 Afghanistan confirmed     0
##  4 2020-01-26 Afghanistan confirmed     0
##  5 2020-01-27 Afghanistan confirmed     0
##  6 2020-01-28 Afghanistan confirmed     0
##  7 2020-01-29 Afghanistan confirmed     0
##  8 2020-01-30 Afghanistan confirmed     0
##  9 2020-01-31 Afghanistan confirmed     0
## 10 2020-02-01 Afghanistan confirmed     0
## # … with 598,769 more rows
…
coronavirus_country <- coronavirus_jhu_country %>%
  left_join(population)

## Joining, by = "country"

coronavirus_country # %>% datatable()

## # A tibble: 598,779 × 9
## # Groups:   date, country [199,593]
##    date       country     cases     value iso2c iso3c region     income  popul…¹
##    <date>     <chr>       <chr>     <dbl> <chr> <chr> <chr>      <chr>     <dbl>
##  1 2020-01-23 Afghanistan confirmed     0 AF    AFG   South Asia Low in…  3.80e7
##  2 2020-01-24 Afghanistan confirmed     0 AF    AFG   South Asia Low in…  3.80e7
##  3 2020-01-25 Afghanistan confirmed     0 AF    AFG   South Asia Low in…  3.80e7
##  4 2020-01-26 Afghanistan confirmed     0 AF    AFG   South Asia Low in…  3.80e7
##  5 2020-01-27 Afghanistan confirmed     0 AF    AFG   South Asia Low in…  3.80e7
##  6 2020-01-28 Afghanistan confirmed     0 AF    AFG   South Asia Low in…  3.80e7
##  7 2020-01-29 Afghanistan confirmed     0 AF    AFG   South Asia Low in…  3.80e7
##  8 2020-01-30 Afghanistan confirmed     0 AF    AFG   South Asia Low in…  3.80e7
##  9 2020-01-31 Afghanistan confirmed     0 AF    AFG   South Asia Low in…  3.80e7
## 10 2020-02-01 Afghanistan confirmed     0 AF    AFG   South Asia Low in…  3.80e7
## # … with 598,769 more rows, and abbreviated variable name ¹​population
…
### Analysis Suggested by Rami Krispin

See https://github.com/RamiKrispin/coronavirus/

Rami Krispin is the author of an R package coronavirus

D.5.4.3 Summary of the total confrimed cases by country

coronavirus_country %>% 
  filter(cases == "confirmed") %>%
  group_by(country) %>%
  summarize(total_cases = sum(value)) %>%
  arrange(desc(total_cases))

## # A tibble: 201 × 2
##    country        total_cases
##    <chr>                <dbl>
##  1 US                96772267
##  2 India             44616235
##  3 France            36187658
##  4 Brazil            34731539
##  5 Germany           34257916
##  6 Korea, South      25025748
##  7 United Kingdom    23957457
##  8 Italy             22896742
##  9 Japan             21593702
## 10 Russia            20929929
## # … with 191 more rows
…
coronavirus_country %>% 
  filter(date == Sys.Date() -2) %>%
  select(country, cases, value) %>%
  group_by(country, cases) %>%
  summarize(total_cases = sum(value)) %>%
  pivot_wider(names_from = cases,
              values_from = total_cases) %>%
  arrange(desc(confirmed))

## Adding missing grouping variables: `date`
## `summarise()` has grouped output by 'country'. You can override using the `.groups`
## argument.

## # A tibble: 201 × 4
## # Groups:   country [201]
##    country      confirmed death recovered
##    <chr>            <dbl> <dbl>     <dbl>
##  1 Germany         172536   185         0
##  2 France          109269   113         0
##  3 Taiwan*          32072    57         0
##  4 Turkey           23116    24         0
##  5 US               21876   117         0
##  6 Brazil           16956   171         0
##  7 Russia           15501    95         0
##  8 Korea, South     15476    10         0
##  9 Italy            15089    51         0
## 10 Japan            13038    50         0
## # … with 191 more rows
