Chapter 5 Exploratory Data Analysis (EDA) 4 | Data Analysis for Researchers
…
Let us look at the first sheet.

The column names are in the 5th row.

The country data starts from the 7th row.

Zimbabue is at the last row.

library(readxl)
wb_countries_tmp <- read_excel("data/CLASS.xlsx", sheet = 1, skip = 0, n_max =219) 
wb_countries <- wb_countries_tmp %>% 
  select(country = Economy, iso3c = Code, region = Region, income = `Income group`, lending = "Lending category", other = "Other (EMU or HIPC)")
wb_countries

## # A tibble: 218 × 6
##    country              iso3c region                     income    lending other
##    <chr>                <chr> <chr>                      <chr>     <chr>   <chr>
##  1 Aruba                ABW   Latin America & Caribbean  High inc… <NA>    <NA> 
##  2 Afghanistan          AFG   South Asia                 Low inco… IDA     HIPC 
##  3 Angola               AGO   Sub-Saharan Africa         Lower mi… IBRD    <NA> 
##  4 Albania              ALB   Europe & Central Asia      Upper mi… IBRD    <NA> 
##  5 Andorra              AND   Europe & Central Asia      High inc… <NA>    <NA> 
##  6 United Arab Emirates ARE   Middle East & North Africa High inc… <NA>    <NA> 
##  7 Argentina            ARG   Latin America & Caribbean  Upper mi… IBRD    <NA> 
##  8 Armenia              ARM   Europe & Central Asia      Upper mi… IBRD    <NA> 
##  9 American Samoa       ASM   East Asia & Pacific        Upper mi… <NA>    <NA> 
## 10 Antigua and Barbuda  ATG   Latin America & Caribbean  High inc… IBRD    <NA> 
## # … with 208 more rows
…
readxl: https://readxl.tidyverse.org

Help: read_excel, read_xls, read_xlsx

Regions start from the 221th row.

Regions end at the 266th row.

wb_regions_tmp <- read_excel("data/CLASS.xlsx", sheet = 1, skip = 0, n_max =266) %>% 
  slice(-(1:220))
wb_regions <- wb_regions_tmp %>% 
  select(region = Economy, iso3c = Code) %>% drop_na()
wb_regions

## # A tibble: 45 × 2
##    region                                        iso3c
##    <chr>                                         <chr>
##  1 Caribbean small states                        CSS  
##  2 Central Europe and the Baltics                CEB  
##  3 Early-demographic dividend                    EAR  
##  4 East Asia & Pacific                           EAS  
##  5 East Asia & Pacific (excluding high income)   EAP  
##  6 East Asia & Pacific (IDA & IBRD)              TEA  
##  7 Euro area                                     EMU  
##  8 Europe & Central Asia                         ECS  
##  9 Europe & Central Asia (excluding high income) ECA  
## 10 Europe & Central Asia (IDA & IBRD)            TEC  
## # … with 35 more rows

Let us look at the second sheet.

wb_groups_tmp <- read_excel("data/CLASS.xlsx", sheet = "Groups") # sheet = 3
wb_groups <- wb_groups_tmp %>% 
  select(gcode = GroupCode, group = GroupName, iso3c = CountryCode, country = CountryName)

Let us find out how many countries are in each group.

wb_groups %>% group_by(group) %>% summarize(number_of_countries = n_distinct(country))

## # A tibble: 48 × 2
##    group                                       number_of_countries
##    <chr>                                                     <int>
##  1 Africa Eastern and Southern                                  26
##  2 Africa Western and Central                                   22
##  3 Arab World                                                   22
##  4 Caribbean small states                                       13
##  5 Central Europe and the Baltics                               11
##  6 Early-demographic dividend                                   62
##  7 East Asia & Pacific                                          38
##  8 East Asia & Pacific (excluding high income)                  24
##  9 East Asia & Pacific (IDA & IBRD)                             23
## 10 Euro area                                                    19
## # … with 38 more rows
…
Let us find out how many groups each country belongs to.

wb_groups %>% group_by(country) %>% summarize(number_of_groups = n_distinct(group)) %>% arrange(desc(number_of_groups))

## # A tibble: 223 × 2
##    country         number_of_groups
##    <chr>                      <int>
##  1 Comoros                       18
##  2 Guinea-Bissau                 16
##  3 Djibouti                      15
##  4 Gambia, The                   15
##  5 Lesotho                       15
##  6 Mauritania                    15
##  7 Solomon Islands               15
##  8 Somalia                       15
##  9 Sudan                         15
## 10 Timor-Leste                   15
## # … with 213 more rows
…
cd("Comoros")

## [1] "ARB, HPC, IBT, IDA, IDX, LDC, OSS, PRE, SSF, SST, TSS, WLD, AFE, FCS, LMC, LMY, MIC, SSA"

cd("Zimbabwe")

## [1] "EAR, IBT, IDA, IDB, SSF, TSS, WLD, AFE, FCS, LMC, LMY, MIC, SSA"

cd("Pakistan")

## [1] "EAR, IBT, IDA, IDB, SAS, TSA, WLD, LMC, LMY, MIC"

wb_groups %>% group_by(country) %>% summarize(group_codes = cd(country))

## # A tibble: 223 × 2
##    country             group_codes                                              
##    <chr>               <chr>                                                    
##  1 Afghanistan         HPC, IBT, IDA, IDX, LDC, PRE, SAS, TSA, WLD, FCS, LIC, L…
##  2 Albania             ECS, IBD, IBT, LTE, TEC, WLD, UMC, LMY, MIC, ECA         
##  3 Algeria             ARB, EAR, IBD, IBT, MEA, TMN, WLD, LMC, LMY, MIC, MNA    
##  4 American Samoa      EAS, WLD, UMC, LMY, MIC, EAP                             
##  5 Andorra             ECS, WLD, HIC                                            
##  6 Angola              IBD, IBT, LDC, PRE, SSF, TSS, WLD, AFE, LMC, LMY, MIC, S…
##  7 Antigua and Barbuda CSS, IBD, IBT, LCN, PST, SST, TLA, WLD, HIC              
##  8 Argentina           EAR, IBD, IBT, LCN, TLA, WLD, UMC, LMY, MIC, LAC         
##  9 Armenia             ECS, IBD, IBT, LTE, TEC, WLD, UMC, LMY, MIC, ECA         
## 10 Aruba               LCN, LTE, WLD, HIC                                       
## # … with 213 more rows
…
