Chapter 3 Exploratory Data Analysis (EDA) 2 | Data Analysis for Researchers
…
We can handle this type of data using tidyverse but now it is easier to use the following package.

timetk Package https://CRAN.R-project.org/package=timetk

# install.packages("timetk") # run this line or install `timetk` from Install Packages in Tool
library(timetk)
df_ap <- tk_tbl(df_AirPassengers)
df_ap

## # A tibble: 144 × 2
##    index     value
##    <yearmon> <dbl>
##  1  1 1949     112
##  2  2 1949     118
##  3  3 1949     132
##  4  4 1949     129
##  5  5 1949     121
##  6  6 1949     135
##  7  7 1949     148
##  8  8 1949     148
##  9  9 1949     136
## 10 10 1949     119
## # … with 134 more rows
…
