Chapter 4 Exploratory Data Analysis (EDA) 3 | Data Analysis for Researchers
…
In the following I include my feedback keeping anonymity.

4.3.2.1 Search string

I answered a question that you can add two search words in vector format. However, this does not work. Sorry. Only the first element will be used in the following.

WDIsearch(string = c("female", "gdp"), field = "name")

4.3.2.2 Avoiding a long search result to include in R Notebook

It is OK to get a very long search result, but to include it in R Notebook, it is better to use as_tibble().

as_tibble(WDIsearch(string = "savings", field = "name", cache = NULL))

## # A tibble: 115 × 2
##    indicator            name                                                    
##    <chr>                <chr>                                                   
##  1 C3.6a                Estimated annual savings value through the use of eProc…
##  2 C3.6b                Percentage of savings value through the use of eProcure…
##  3 C3.6c                Methodology used in order to calculate savings value th…
##  4 FB.INC.BNKG.AC.SC.MC 287_Is the ceiling on the minimum balance for savings/c…
##  5 FB.INC.BNKG.AC.SC.MM 288_Are the maximum maintenance fees for savings/curren…
##  6 FB.INC.BNKG.AC.SC.MX 286_Is the maximum cost to open a savings/current accou…
##  7 FB.INC.BNKG.AC.SC.NC 292_Is there no cost for customers to open a savings/cu…
##  8 FB.INC.LEGL.DF.MS    149_Is the term of microsavings explicitly defined in l…
##  9 FB.INC.POLI.FI.TI    021_Are tax incentive savings schemes in place to promo…
## 10 fin17b.t.a           Saved using a savings club or a person outside the fami…
## # … with 105 more rows
…
WDIsearch(string = "SE.XPD.TOTL.GD.ZS", field = "indicator", cache = NULL)

##                                               indicator 
##                                     "SE.XPD.TOTL.GD.ZS" 
##                                                    name 
## "Government expenditure on education, total (% of GDP)"

df_e <- as_tibble(WDI(
  country = c("CN", "IN", "US", "ID","PK", "BR", "NG", "BD", "RU", "MX", "JP","LKA" ), 
  indicator = c(education = "SE.XPD.TOTL.GD.ZS"),
  start = 2000,
  end = 2020))
df_e

## # A tibble: 252 × 4
##    iso2c country    education  year
##    <chr> <chr>          <dbl> <int>
##  1 BD    Bangladesh     NA     2020
##  2 BD    Bangladesh      1.33  2019
##  3 BD    Bangladesh     NA     2018
##  4 BD    Bangladesh     NA     2017
##  5 BD    Bangladesh      1.54  2016
##  6 BD    Bangladesh     NA     2015
##  7 BD    Bangladesh     NA     2014
##  8 BD    Bangladesh      1.97  2013
##  9 BD    Bangladesh      2.18  2012
## 10 BD    Bangladesh      2.13  2011
## # … with 242 more rows
…
WDIsearch(string = "NY.GDS.TOTL.CD", field = "indicator")

##                              indicator                                   name 
##                       "NY.GDS.TOTL.CD" "Gross domestic savings (current US$)"

df_pk <- as_tibble(
  WDI(
  country = "PK",
  indicator = c(gdpcap = "NY.GDP.MKTP.CD", saving = "NY.GDS.TOTL.CD"), 
  start = 1976,
  end = 2020)
  )
df_pk

## # A tibble: 45 × 5
##    iso2c country   year       gdpcap      saving
##    <chr> <chr>    <int>        <dbl>       <dbl>
##  1 PK    Pakistan  1976 13168080808. 1292626263.
##  2 PK    Pakistan  1977 15126060606. 1481919192.
##  3 PK    Pakistan  1978 17811515152. 1413030303.
##  4 PK    Pakistan  1979 19688383838. 1247979798.
##  5 PK    Pakistan  1980 23654444444. 1644747475.
##  6 PK    Pakistan  1981 28100606061. 2604545455.
##  7 PK    Pakistan  1982 30725971564. 2557251185.
##  8 PK    Pakistan  1983 28691889764. 2428267717.
##  9 PK    Pakistan  1984 31151825467. 2397892550.
## 10 PK    Pakistan  1985 31144920844. 1958113456.
## # … with 35 more rows
…
##                                         indicator 
##                               "NE.CON.TOTL.KD.ZG" 
##                                              name 
## "Final consumption expenditure (annual % growth)"

df_cp_con <- as_tibble(WDI(
  country = c("CN", "VN", "US", "TH", "GB", "FR", "RU", "DE", "JP"),
  indicator = c(cp = "FP.CPI.TOTL", con ="NE.CON.TOTL.KD.ZG"),
  start = 1990,
  end = 2020
))
df_cp_con

## # A tibble: 279 × 5
##    iso2c country  year    cp   con
##    <chr> <chr>   <int> <dbl> <dbl>
##  1 CN    China    1990  40.4 NA   
##  2 CN    China    1991  41.9 NA   
##  3 CN    China    1992  44.5 NA   
##  4 CN    China    1993  51.0 NA   
##  5 CN    China    1994  63.4 NA   
##  6 CN    China    1995  74.1 NA   
##  7 CN    China    1996  80.2 12.1 
##  8 CN    China    1997  82.5  7.56
##  9 CN    China    1998  81.8 10.0 
## 10 CN    China    1999  80.7 13.0 
## # … with 269 more rows
…
df_jp <- as_tibble(WDI(
  country = "JP",
  indicator = c(total = "SP.POP.TOTL", fertility = "SP.DYN.TFRT.IN"), 
  start = 1960,
  end = 2020))
df_jp

## # A tibble: 61 × 5
##    iso2c country  year     total fertility
##    <chr> <chr>   <int>     <dbl>     <dbl>
##  1 JP    Japan    1960  93216000      2.00
##  2 JP    Japan    1961  94055000      2.05
##  3 JP    Japan    1962  94933000      2.01
##  4 JP    Japan    1963  95900000      2.02
##  5 JP    Japan    1964  96903000      2.05
##  6 JP    Japan    1965  97952000      2.14
##  7 JP    Japan    1966  98851000      1.58
##  8 JP    Japan    1967  99879000      2.02
##  9 JP    Japan    1968 101011000      2.13
## 10 JP    Japan    1969 102219000      2.13
## # … with 51 more rows
…
##                                       indicator 
##                             "NY.GNP.PCAP.PP.CD" 
##                                            name 
## "GNI per capita, PPP (current international $)"

df_gni <- as_tibble(WDI(
  country = c("CN", "IN", "US", "ID","PK", "BR", "NG", "BD", "VN", "MX", "JP"), 
  indicator = c(gni ="NY.GNP.PCAP.PP.CD"),
  start = 1960,
  end = 2020,
))
df_gni

## # A tibble: 671 × 4
##    iso2c country      gni  year
##    <chr> <chr>      <dbl> <int>
##  1 BD    Bangladesh  6240  2020
##  2 BD    Bangladesh  6020  2019
##  3 BD    Bangladesh  5530  2018
##  4 BD    Bangladesh  5060  2017
##  5 BD    Bangladesh  4830  2016
##  6 BD    Bangladesh  3790  2015
##  7 BD    Bangladesh  3590  2014
##  8 BD    Bangladesh  3400  2013
##  9 BD    Bangladesh  3190  2012
## 10 BD    Bangladesh  2830  2011
## # … with 661 more rows
…
The following code is counting the year there is at least one value, i.e., non NA value. is.na(x) gives a value, 1 for TRUE and 0 for FALSE, and !is.na(x) is the opposite. By taking a sum, you can find years with values. The following tells you that after 1990 11 countries have values while no country has value before 1989.

df_gni %>% group_by(year) %>%
  summarize(noNA = sum(!is.na(gni)))

## # A tibble: 61 × 2
##     year  noNA
##    <int> <int>
##  1  1960     0
##  2  1961     0
##  3  1962     0
##  4  1963     0
##  5  1964     0
##  6  1965     0
##  7  1966     0
##  8  1967     0
##  9  1968     0
## 10  1969     0
## # … with 51 more rows
…
The school enrollment of male and female for the lower secondary in ASIAN countries.

df_enrr <- as_tibble(WDI(
  country = c("BN", "KH", "TL", "ID","LA", "MY", "MM", "PH", "SG", "TH", "VN"),
  indicator = c(all = "SE.SEC.ENRR", female = "SE.SEC.ENRR.LO.FE", male = "SE.SEC.ENRR.LO.MA"),
  start = 2016,
  end = 2018
 ))
df_enrr

## # A tibble: 33 × 6
##    iso2c country            year   all female  male
##    <chr> <chr>             <int> <dbl>  <dbl> <dbl>
##  1 BN    Brunei Darussalam  2016  94.1  104.  105. 
##  2 BN    Brunei Darussalam  2017  92.9  107.  108. 
##  3 BN    Brunei Darussalam  2018  93.5  107.  110. 
##  4 ID    Indonesia          2016  85.0   97.3  94.6
##  5 ID    Indonesia          2017  87.1   96.1  94.9
##  6 ID    Indonesia          2018  88.9   98.1  96.9
##  7 KH    Cambodia           2016  NA     68.2  64.7
##  8 KH    Cambodia           2017  NA     72.1  66.6
##  9 KH    Cambodia           2018  NA     74.2  68.5
## 10 LA    Lao PDR            2016  66.3   76.3  81.8
## # … with 23 more rows
…
