Chapter 6 Exploratory Data Analysis (EDA) 5 | Data Analysis for Researchers
…
6.1.13 Predictions \(\hat{y} = a_1 + a_2x\) and Residuals \(y - \hat{y}\)

(mod_table <- t_cars %>% add_predictions(mod) %>% add_residuals(mod, var = "resid"))

## # A tibble: 50 × 4
##    speed  dist  pred resid
##    <dbl> <dbl> <dbl> <dbl>
##  1     4     2 -1.85  3.85
##  2     4    10 -1.85 11.8 
##  3     7     4  9.95 -5.95
##  4     7    22  9.95 12.1 
##  5     8    16 13.9   2.12
##  6     9    10 17.8  -7.81
##  7    10    18 21.7  -3.74
##  8    10    26 21.7   4.26
##  9    10    34 21.7  12.3 
## 10    11    17 25.7  -8.68
## # … with 40 more rows
…
### geom_jitter()

t_cars %>% group_by(speed, dist) %>% 
  summarize(count = n()) %>% arrange(desc(count))

## `summarise()` has grouped output by 'speed'. You can override using the `.groups`
## argument.

## # A tibble: 49 × 3
## # Groups:   speed [19]
##    speed  dist count
##    <dbl> <dbl> <int>
##  1    13    34     2
##  2     4     2     1
##  3     4    10     1
##  4     7     4     1
##  5     7    22     1
##  6     8    16     1
##  7     9    10     1
##  8    10    18     1
##  9    10    26     1
## 10    10    34     1
## # … with 39 more rows

6.1.14 iris

(t_iris <- as_tibble(datasets::iris))

## # A tibble: 150 × 5
##    Sepal.Length Sepal.Width Petal.Length Petal.Width Species
##           <dbl>       <dbl>        <dbl>       <dbl> <fct>  
##  1          5.1         3.5          1.4         0.2 setosa 
##  2          4.9         3            1.4         0.2 setosa 
##  3          4.7         3.2          1.3         0.2 setosa 
##  4          4.6         3.1          1.5         0.2 setosa 
##  5          5           3.6          1.4         0.2 setosa 
##  6          5.4         3.9          1.7         0.4 setosa 
##  7          4.6         3.4          1.4         0.3 setosa 
##  8          5           3.4          1.5         0.2 setosa 
##  9          4.4         2.9          1.4         0.2 setosa 
## 10          4.9         3.1          1.5         0.1 setosa 
## # … with 140 more rows
…
Let us look at the first sheet.

The column names are in the 5th row.

The country data starts from the 7th row.

Zimbabue is at the last row.

library(readxl)
wb_countries_tmp <- read_excel("data/CLASS.xlsx", sheet = 1, skip = 0, n_max =219) 
wb_countries <- wb_countries_tmp %>% 
  select(country = Economy, iso3c = Code, region = Region, income = `Income group`, lending = "Lending category", other = "Other (EMU or HIPC)")
wb_countries

## # A tibble: 218 × 6
##    country              iso3c region                     income    lending other
##    <chr>                <chr> <chr>                      <chr>     <chr>   <chr>
##  1 Aruba                ABW   Latin America & Caribbean  High inc… <NA>    <NA> 
##  2 Afghanistan          AFG   South Asia                 Low inco… IDA     HIPC 
##  3 Angola               AGO   Sub-Saharan Africa         Lower mi… IBRD    <NA> 
##  4 Albania              ALB   Europe & Central Asia      Upper mi… IBRD    <NA> 
##  5 Andorra              AND   Europe & Central Asia      High inc… <NA>    <NA> 
##  6 United Arab Emirates ARE   Middle East & North Africa High inc… <NA>    <NA> 
##  7 Argentina            ARG   Latin America & Caribbean  Upper mi… IBRD    <NA> 
##  8 Armenia              ARM   Europe & Central Asia      Upper mi… IBRD    <NA> 
##  9 American Samoa       ASM   East Asia & Pacific        Upper mi… <NA>    <NA> 
## 10 Antigua and Barbuda  ATG   Latin America & Caribbean  High inc… IBRD    <NA> 
## # … with 208 more rows
…
readxl: https://readxl.tidyverse.org

Help: read_excel, read_xls, read_xlsx

Regions start from the 221th row.

Regions end at the 266th row.

wb_regions_tmp <- read_excel("data/CLASS.xlsx", sheet = 1, skip = 0, n_max =266) %>% 
  slice(-(1:220))
wb_regions <- wb_regions_tmp %>% 
  select(region = Economy, iso3c = Code) %>% drop_na()
wb_regions

## # A tibble: 45 × 2
##    region                                        iso3c
##    <chr>                                         <chr>
##  1 Caribbean small states                        CSS  
##  2 Central Europe and the Baltics                CEB  
##  3 Early-demographic dividend                    EAR  
##  4 East Asia & Pacific                           EAS  
##  5 East Asia & Pacific (excluding high income)   EAP  
##  6 East Asia & Pacific (IDA & IBRD)              TEA  
##  7 Euro area                                     EMU  
##  8 Europe & Central Asia                         ECS  
##  9 Europe & Central Asia (excluding high income) ECA  
## 10 Europe & Central Asia (IDA & IBRD)            TEC  
## # … with 35 more rows
…
df_un_internet %>% distinct(Source)

## # A tibble: 1 × 1
##   Source                                                                        
##   <chr>                                                                         
## 1 International Telecommunication Union (ITU), Geneva, the ITU database, last a…

All sources are ‘International Telecommunication Union (ITU), Geneva, the ITU database, last accessed January 2021’.

df_un_internet %>% distinct(Footnotes)

## # A tibble: 71 × 1
##    Footnotes                                                                    
##    <chr>                                                                        
##  1 <NA>                                                                         
##  2 Estimate.                                                                    
##  3 Population aged 15 years and over.                                           
##  4 Population aged 15 years and over.;Accessed the internet for personal use in…
##  5 Population aged 14 years and over.                                           
##  6 Population aged 16 to 74 years.                                              
##  7 Population aged 16 to 74 years.;Users in the last 3 months.                  
##  8 Population aged 7 years and over.                                            
##  9 Population aged 16 years and over.                                           
## 10 Users in the last 12 months.                                                 
## # … with 61 more rows

df_un_internet %>% distinct(Series)

## # A tibble: 1 × 1
##   Series                                      
##   <chr>                                       
## 1 Percentage of individuals using the internet

There is only one series. ‘Percentage of individuals using the internet’ can be for the title.

df_un_internet %>% group_by(Footnotes) %>% summarize(number_of_regions = n_distinct(`...2`)) %>%
  arrange(desc(number_of_regions))

## # A tibble: 71 × 2
##    Footnotes                                                   number_of_regions
##    <chr>                                                                   <int>
##  1 <NA>                                                                      236
##  2 Estimate.                                                                 151
##  3 Population aged 16 to 74 years.                                            31
##  4 Users in the last 3 months.                                                16
##  5 Population aged 5 years and over.                                           9
##  6 Population aged 6 years and over.                                           9
##  7 Estimate.;Population aged 18 years and over.                                8
##  8 Population aged 15 years and over.                                          6
##  9 Population aged 16 to 74 years.;Users in the last 3 months.                 6
## 10 Population aged 10 years and over.                                          5
## # … with 61 more rows
…
## # A tibble: 7 × 2
##    Year number_of_regions
##   <dbl>             <int>
## 1  2010               233
## 2  2000               232
## 3  2005               232
## 4  2015               227
## 5  2017               222
## 6  2018               110
## 7  2019               101

df_un_internet %>% group_by(...2) %>% summarize(number_of_years = n_distinct(Year)) %>%
  arrange(number_of_years)

## # A tibble: 246 × 2
##    ...2                     number_of_years
##    <chr>                              <int>
##  1 "Cura\xe7ao"                           1
##  2 "Mayotte"                              1
##  3 "Montserrat"                           1
##  4 "Nauru"                                1
##  5 "Ascension"                            2
##  6 "British Virgin Islands"               2
##  7 "French Guiana"                        2
##  8 "Guadeloupe"                           2
##  9 "Guernsey"                             2
## 10 "Jersey"                               2
## # … with 236 more rows

df_un_internet %>% group_by(`Region/Country/Area`) %>% summarize(number_of_years = n_distinct(Year)) %>%
  arrange(number_of_years)

## # A tibble: 246 × 2
##    `Region/Country/Area` number_of_years
##                    <dbl>           <int>
##  1                   175               1
##  2                   500               1
##  3                   520               1
##  4                   531               1
##  5                    92               2
##  6                   254               2
##  7                   312               2
##  8                   412               2
##  9                   474               2
## 10                   638               2
## # … with 236 more rows

df_un_internet %>% distinct(`Region/Country/Area`, ...2)

## # A tibble: 246 × 2
##    `Region/Country/Area` ...2                         
##                    <dbl> <chr>                        
##  1                     1 Total, all countries or areas
##  2                    15 Northern Africa              
##  3                   202 Sub-Saharan Africa           
##  4                    14 Eastern Africa               
##  5                    17 Middle Africa                
##  6                    18 Southern Africa              
##  7                    11 Western Africa               
##  8                    21 Northern America             
##  9                   419 Latin America & the Caribbean
## 10                    29 Caribbean                    
## # … with 236 more rows
…
## Rows: 2462 Columns: 6
## ── Column specification ────────────────────────────────────────────────────────────────
## Delimiter: ","
## chr (4): OID, Country or Area, Description, Magnitude
## dbl (2): Year, Value
## 
## ℹ Use `spec()` to retrieve the full column specification for this data.
## ℹ Specify the column types or set `show_col_types = FALSE` to quiet this message.

6.3.8.2 Glimpsing

df_by

## # A tibble: 2,462 × 6
##    OID           `Country or Area`  Year Description              Magnit…¹ Value
##    <chr>         <chr>             <dbl> <chr>                    <chr>    <dbl>
##  1 91161...ZF... ARMENIA            2007 GOVERNMENT BOND YIELD    PERCENT…  6.56
##  2 91161...ZF... ARMENIA            2006 GOVERNMENT BOND YIELD    PERCENT…  5.86
##  3 91161...ZF... ARMENIA            2005 GOVERNMENT BOND YIELD    PERCENT…  5.18
##  4 91161...ZF... ARMENIA            2004 GOVERNMENT BOND YIELD    PERCENT…  8.21
##  5 91161...ZF... ARMENIA            2003 GOVERNMENT BOND YIELD    PERCENT… 15.7 
##  6 91161...ZF... ARMENIA            2002 GOVERNMENT BOND YIELD    PERCENT… 17.4 
##  7 91161...ZF... ARMENIA            2001 GOVERNMENT BOND YIELD    PERCENT… 23.2 
##  8 91161...ZF... ARMENIA            2000 GOVERNMENT BOND YIELD    PERCENT… 25.5 
##  9 19361A..ZF... AUSTRALIA          2009 TREASURY BONDS: 3 YEARS  PERCENT…  4.26
## 10 19361...ZF... AUSTRALIA          2009 TREASURY BONDS: 15 YEARS PERCENT…  5.09
## # … with 2,452 more rows, and abbreviated variable name ¹​Magnitude

df_by %>% glimpse()

## Rows: 2,462
## Columns: 6
## $ OID               <chr> "91161...ZF...", "91161...ZF...", "91161...ZF...", "…
## $ `Country or Area` <chr> "ARMENIA", "ARMENIA", "ARMENIA", "ARMENIA", "ARMENIA…
## $ Year              <dbl> 2007, 2006, 2005, 2004, 2003, 2002, 2001, 2000, 2009…
## $ Description       <chr> "GOVERNMENT BOND YIELD", "GOVERNMENT BOND YIELD", "G…
## $ Magnitude         <chr> "PERCENT PER ANNU", "PERCENT PER ANNU", "PERCENT PER…
## $ Value             <dbl> 6.56222, 5.85693, 5.18325, 8.20862, 15.71420, 17.442…

df_by %>% distinct(Description)

## # A tibble: 33 × 1
##    Description                    
##    <chr>                          
##  1 GOVERNMENT BOND YIELD          
##  2 TREASURY BONDS: 3 YEARS        
##  3 TREASURY BONDS: 15 YEARS       
##  4 GOV. BONDS: 10 YEARS           
##  5 GOVERNMENT BOND YEILD          
##  6 GOVT BOND YIELD 3-5 YEARS      
##  7 GOVERNMENT BOND YIELD > 10 YRS.
##  8 GOVT. BOND YIELD               
##  9 MORTGAGE BOND YIELD            
## 10 LONG-TERM LOAN RATE            
## # … with 23 more rows

df_by %>% group_by(Description) %>% summarize(num_of_regions = n_distinct(`Country or Area`)) %>%
  arrange(desc(num_of_regions))

## # A tibble: 33 × 2
##    Description                      num_of_regions
##    <chr>                                     <int>
##  1 GOVERNMENT BOND YIELD                        44
##  2 15 YEAR TREASURY BOND YIELD                   1
##  3 5 YEAR TREASURY BOND YIELD                    1
##  4 AVG SHT TRM GOVT BONDS RATE                   1
##  5 COUPON RATE ON L.T.DEVELPT BONDS              1
##  6 GOV. BONDS: 10 YEARS                          1
##  7 GOVENMENT BOND YIELD                          1
##  8 GOVERNMENT BOND RATE                          1
##  9 GOVERNMENT BOND YEILD                         1
## 10 GOVERNMENT BOND YIELD (7 YRS)                 1
## # … with 23 more rows

df_by %>% filter(Description == "GOVERNMENT BOND YIELD") %>%
  distinct(OID, `Country or Area`, Description)

## # A tibble: 44 × 3
##    OID           `Country or Area` Description          
##    <chr>         <chr>             <chr>                
##  1 91161...ZF... ARMENIA           GOVERNMENT BOND YIELD
##  2 12261...ZF... AUSTRIA           GOVERNMENT BOND YIELD
##  3 12461...ZF... BELGIUM           GOVERNMENT BOND YIELD
##  4 93561...ZF... CZECH REPUBLIC    GOVERNMENT BOND YIELD
##  5 12861...ZF... DENMARK           GOVERNMENT BOND YIELD
##  6 64461...ZF... ETHIOPIA          GOVERNMENT BOND YIELD
##  7 16361...ZF... EURO AREA         GOVERNMENT BOND YIELD
##  8 17261...ZF... FINLAND           GOVERNMENT BOND YIELD
##  9 13261...ZF... FRANCE            GOVERNMENT BOND YIELD
## 10 13461...ZF... GERMANY           GOVERNMENT BOND YIELD
## # … with 34 more rows

df_by %>% filter(Description != "GOVERNMENT BOND YIELD") %>%
  distinct(OID, `Country or Area`, Description)

## # A tibble: 32 × 3
##    OID           `Country or Area` Description                    
##    <chr>         <chr>             <chr>                          
##  1 19361A..ZF... AUSTRALIA         TREASURY BONDS: 3 YEARS        
##  2 19361...ZF... AUSTRALIA         TREASURY BONDS: 15 YEARS       
##  3 61661...ZF... BOTSWANA          GOV. BONDS: 10 YEARS           
##  4 91861...ZF... BULGARIA          GOVERNMENT BOND YEILD          
##  5 15661A..ZF... CANADA            GOVT BOND YIELD 3-5 YEARS      
##  6 15661...ZF... CANADA            GOVERNMENT BOND YIELD > 10 YRS.
##  7 42361...ZF... CYPRUS            GOVT. BOND YIELD               
##  8 12861A..ZF... DENMARK           MORTGAGE BOND YIELD            
##  9 93961...ZF... ESTONIA           LONG-TERM LOAN RATE            
## 10 81961...ZF... FIJI              AVG SHT TRM GOVT BONDS RATE    
## # … with 22 more rows

df_by %>% distinct(Magnitude)

## # A tibble: 1 × 1
##   Magnitude       
##   <chr>           
## 1 PERCENT PER ANNU

df_by %>% distinct(Year) %>% arrange(desc(Year))

## # A tibble: 62 × 1
##     Year
##    <dbl>
##  1  2009
##  2  2008
##  3  2007
##  4  2006
##  5  2005
##  6  2004
##  7  2003
##  8  2002
##  9  2001
## 10  2000
## # … with 52 more rows

df_by %>% group_by(Year) %>% summarize(number_of_countries = n_distinct(`Country or Area`)) %>%
  arrange(desc(number_of_countries))

## # A tibble: 62 × 2
##     Year number_of_countries
##    <dbl>               <int>
##  1  2006                  61
##  2  2005                  60
##  3  2007                  59
##  4  2004                  58
##  5  2003                  57
##  6  2002                  54
##  7  2001                  53
##  8  2008                  53
##  9  1995                  47
## 10  2000                  47
## # … with 52 more rows

df_by %>% distinct(OID)

## # A tibble: 76 × 1
##    OID          
##    <chr>        
##  1 91161...ZF...
##  2 19361A..ZF...
##  3 19361...ZF...
##  4 12261...ZF...
##  5 12461...ZF...
##  6 61661...ZF...
##  7 91861...ZF...
##  8 15661A..ZF...
##  9 15661...ZF...
## 10 42361...ZF...
## # … with 66 more rows

df_by %>% distinct(`Country or Area`)

## # A tibble: 69 × 1
##    `Country or Area`
##    <chr>            
##  1 ARMENIA          
##  2 AUSTRALIA        
##  3 AUSTRIA          
##  4 BELGIUM          
##  5 BOTSWANA         
##  6 BULGARIA         
##  7 CANADA           
##  8 CYPRUS           
##  9 CZECH REPUBLIC   
## 10 DENMARK          
## # … with 59 more rows

df_by %>% distinct(OID, `Country or Area`)

## # A tibble: 76 × 2
##    OID           `Country or Area`
##    <chr>         <chr>            
##  1 91161...ZF... ARMENIA          
##  2 19361A..ZF... AUSTRALIA        
##  3 19361...ZF... AUSTRALIA        
##  4 12261...ZF... AUSTRIA          
##  5 12461...ZF... BELGIUM          
##  6 61661...ZF... BOTSWANA         
##  7 91861...ZF... BULGARIA         
##  8 15661A..ZF... CANADA           
##  9 15661...ZF... CANADA           
## 10 42361...ZF... CYPRUS           
## # … with 66 more rows

df_by %>% group_by(`Country or Area`) %>% summarize(num_of_oid = n_distinct(OID)) %>%
  arrange(desc(num_of_oid))

## # A tibble: 69 × 2
##    `Country or Area` num_of_oid
##    <chr>                  <int>
##  1 AUSTRALIA                  2
##  2 CANADA                     2
##  3 DENMARK                    2
##  4 ITALY                      2
##  5 MOROCCO                    2
##  6 UNITED KINGDOM             2
##  7 UNITED STATES              2
##  8 ARMENIA                    1
##  9 AUSTRIA                    1
## 10 BELGIUM                    1
## # … with 59 more rows
…
## Rows: 2909 Columns: 8
## ── Column specification ────────────────────────────────────────────────────────────────
## Delimiter: ","
## chr (5): LOCATION, INDICATOR, SUBJECT, MEASURE, FREQUENCY
## dbl (2): TIME, Value
## lgl (1): Flag Codes
## 
## ℹ Use `spec()` to retrieve the full column specification for this data.
## ℹ Specify the column types or set `show_col_types = FALSE` to quiet this message.

6.3.9.2 Glimpsing

elderly_population

## # A tibble: 2,909 × 8
##    LOCATION INDICATOR SUBJECT MEASURE FREQUENCY  TIME Value `Flag Codes`
##    <chr>    <chr>     <chr>   <chr>   <chr>     <dbl> <dbl> <lgl>       
##  1 AUS      ELDLYPOP  TOT     PC_POP  A          1970  8.35 NA          
##  2 AUS      ELDLYPOP  TOT     PC_POP  A          1971  8.34 NA          
##  3 AUS      ELDLYPOP  TOT     PC_POP  A          1972  8.41 NA          
##  4 AUS      ELDLYPOP  TOT     PC_POP  A          1973  8.51 NA          
##  5 AUS      ELDLYPOP  TOT     PC_POP  A          1974  8.61 NA          
##  6 AUS      ELDLYPOP  TOT     PC_POP  A          1975  8.72 NA          
##  7 AUS      ELDLYPOP  TOT     PC_POP  A          1976  8.93 NA          
##  8 AUS      ELDLYPOP  TOT     PC_POP  A          1977  9.07 NA          
##  9 AUS      ELDLYPOP  TOT     PC_POP  A          1978  9.24 NA          
## 10 AUS      ELDLYPOP  TOT     PC_POP  A          1979  9.44 NA          
## # … with 2,899 more rows
…
