C Appendix C Modeling | Data Analysis for Researchers
…
Galton’s data on the heights of parents and their children, by child

Description:
This data set lists the individual observations for 934 children in 205 families on which Galton (1886) based his cross-tabulation.

In addition to the question of the relation between heights of parents and their offspring, for which this data is mainly famous, Galton had another purpose which the data in this form allows to address: Does marriage selection indicate a relationship between the heights of husbands and wives, a topic he called assortative mating? Keen p. 297-298 provides a brief discussion of this topic.

See Help: GaltonFamilies

gf <- as_tibble(GaltonFamilies)
gf

## # A tibble: 934 × 8
##    family father mother midparentHeight children childNum gender childHeight
##    <fct>   <dbl>  <dbl>           <dbl>    <int>    <int> <fct>        <dbl>
##  1 001      78.5   67              75.4        4        1 male          73.2
##  2 001      78.5   67              75.4        4        2 female        69.2
##  3 001      78.5   67              75.4        4        3 female        69  
##  4 001      78.5   67              75.4        4        4 female        69  
##  5 002      75.5   66.5            73.7        4        1 male          73.5
##  6 002      75.5   66.5            73.7        4        2 male          72.5
##  7 002      75.5   66.5            73.7        4        3 female        65.5
##  8 002      75.5   66.5            73.7        4        4 female        65.5
##  9 003      75     64              72.1        2        1 male          71  
## 10 003      75     64              72.1        2        2 female        68  
## # … with 924 more rows
…
gf %>% filter(gender == "male") %>% 
  add_predictions(mod_mf) %>% 
  add_residuals(mod_mf)

## # A tibble: 481 × 10
##    family father mother midparentH…¹ child…² child…³ gender child…⁴  pred  resid
##    <fct>   <dbl>  <dbl>        <dbl>   <int>   <int> <fct>    <dbl> <dbl>  <dbl>
##  1 001      78.5   67           75.4       4       1 male      73.2  73.4 -0.215
##  2 002      75.5   66.5         73.7       4       1 male      73.5  72.1  1.42 
##  3 002      75.5   66.5         73.7       4       2 male      72.5  72.1  0.425
##  4 003      75     64           72.1       2       1 male      71    71.9 -0.852
##  5 004      75     64           72.1       5       1 male      70.5  71.9 -1.35 
##  6 004      75     64           72.1       5       2 male      68.5  71.9 -3.35 
##  7 005      75     58.5         69.1       6       1 male      72    71.9  0.148
##  8 005      75     58.5         69.1       6       2 male      69    71.9 -2.85 
##  9 005      75     58.5         69.1       6       3 male      68    71.9 -3.85 
## 10 007      74     68           73.7       6       1 male      76.5  71.4  5.09 
## # … with 471 more rows, and abbreviated variable names ¹​midparentHeight,
## #   ²​children, ³​childNum, ⁴​childHeight
…
gf %>% filter(gender == "female") %>% 
  add_predictions(mod_ff) %>% 
  add_residuals(mod_ff)

## # A tibble: 453 × 10
##    family father mother midparentH…¹ child…² child…³ gender child…⁴  pred  resid
##    <fct>   <dbl>  <dbl>        <dbl>   <int>   <int> <fct>    <dbl> <dbl>  <dbl>
##  1 001      78.5   67           75.4       4       2 female    69.2  67.6  1.57 
##  2 001      78.5   67           75.4       4       3 female    69    67.6  1.37 
##  3 001      78.5   67           75.4       4       4 female    69    67.6  1.37 
##  4 002      75.5   66.5         73.7       4       3 female    65.5  66.5 -0.983
##  5 002      75.5   66.5         73.7       4       4 female    65.5  66.5 -0.983
##  6 003      75     64           72.1       2       2 female    68    66.3  1.71 
##  7 004      75     64           72.1       5       3 female    67    66.3  0.707
##  8 004      75     64           72.1       5       4 female    64.5  66.3 -1.79 
##  9 004      75     64           72.1       5       5 female    63    66.3 -3.29 
## 10 005      75     58.5         69.1       6       4 female    66.5  66.3  0.207
## # … with 443 more rows, and abbreviated variable names ¹​midparentHeight,
## #   ²​children, ³​childNum, ⁴​childHeight
…
C.4.1.2 Predictions \(\hat{y} = a_1 + a_2x\) and Residuals \(y - \hat{y}\)

mod_table <- t_cars %>% add_predictions(mod) %>% add_residuals(mod, var = "resid")
mod_table

## # A tibble: 50 × 4
##    speed  dist  pred resid
##    <dbl> <dbl> <dbl> <dbl>
##  1     4     2 -1.85  3.85
##  2     4    10 -1.85 11.8 
##  3     7     4  9.95 -5.95
##  4     7    22  9.95 12.1 
##  5     8    16 13.9   2.12
##  6     9    10 17.8  -7.81
##  7    10    18 21.7  -3.74
##  8    10    26 21.7   4.26
##  9    10    34 21.7  12.3 
## 10    11    17 25.7  -8.68
## # … with 40 more rows
…
geom_jitter()

t_cars %>% group_by(speed, dist) %>% 
  summarize(count = n()) %>% arrange(desc(count))

## `summarise()` has grouped output by 'speed'. You can override using the `.groups`
## argument.

## # A tibble: 49 × 3
## # Groups:   speed [19]
##    speed  dist count
##    <dbl> <dbl> <int>
##  1    13    34     2
##  2     4     2     1
##  3     4    10     1
##  4     7     4     1
##  5     7    22     1
##  6     8    16     1
##  7     9    10     1
##  8    10    18     1
##  9    10    26     1
## 10    10    34     1
## # … with 39 more rows

C.4.2 iris

data(iris)

t_iris <- as_tibble(iris)
t_iris

## # A tibble: 150 × 5
##    Sepal.Length Sepal.Width Petal.Length Petal.Width Species
##           <dbl>       <dbl>        <dbl>       <dbl> <fct>  
##  1          5.1         3.5          1.4         0.2 setosa 
##  2          4.9         3            1.4         0.2 setosa 
##  3          4.7         3.2          1.3         0.2 setosa 
##  4          4.6         3.1          1.5         0.2 setosa 
##  5          5           3.6          1.4         0.2 setosa 
##  6          5.4         3.9          1.7         0.4 setosa 
##  7          4.6         3.4          1.4         0.3 setosa 
##  8          5           3.4          1.5         0.2 setosa 
##  9          4.4         2.9          1.4         0.2 setosa 
## 10          4.9         3.1          1.5         0.1 setosa 
## # … with 140 more rows
…
