A Appendix A Nightingale’s Data | Data Analysis for Researchers
…
Month, Year columns are redundant and use Date

When rates are considered, Army, Desease, Wounds and Other columns are not necessary.

We use long table to apply ggplot2 to visualize data.

dat %>% pivot_longer(cols = "columns kept as a vector", names_to = "variable", values_to = "date")

df_fn <- Nightingale %>%
  select(Date, "Disease_Rate" = Disease.rate, "Wounds_Rate" = Wounds.rate, "Other_Rate" = Other.rate) %>%
  pivot_longer(cols = Disease_Rate:Other_Rate, names_to = "Cause", values_to = "Deaths")
df_fn

## # A tibble: 72 × 3
##    Date       Cause        Deaths
##    <date>     <chr>         <dbl>
##  1 1854-04-01 Disease_Rate    1.4
##  2 1854-04-01 Wounds_Rate     0  
##  3 1854-04-01 Other_Rate      7  
##  4 1854-05-01 Disease_Rate    6.2
##  5 1854-05-01 Wounds_Rate     0  
##  6 1854-05-01 Other_Rate      4.6
##  7 1854-06-01 Disease_Rate    4.7
##  8 1854-06-01 Wounds_Rate     0  
##  9 1854-06-01 Other_Rate      2.5
## 10 1854-07-01 Disease_Rate  150  
## # … with 62 more rows
…
