D Appendix E Population | Data Analysis for Researchers
…
idb15 <- read_csv("data/idb15.csv")

## Rows: 509343 Columns: 6
## ── Column specification ────────────────────────────────────────────────────────
## Delimiter: ","
## chr (2): COUNTRY, ISO2
## dbl (4): YEAR, SEX, POP, AGE
## 
## ℹ Use `spec()` to retrieve the full column specification for this data.
## ℹ Specify the column types or set `show_col_types = FALSE` to quiet this message.

idb15 

## # A tibble: 509,343 × 6
##     YEAR COUNTRY    ISO2    SEX     POP   AGE
##    <dbl> <chr>      <chr> <dbl>   <dbl> <dbl>
##  1  1981 Bangladesh BD        0 3428071     0
##  2  1981 Bangladesh BD        0 3072594     1
##  3  1981 Bangladesh BD        0 2888362     2
##  4  1981 Bangladesh BD        0 2782738     3
##  5  1981 Bangladesh BD        0 2719081     4
##  6  1981 Bangladesh BD        0 2669809     5
##  7  1981 Bangladesh BD        0 2614671     6
##  8  1981 Bangladesh BD        0 2545849     7
##  9  1981 Bangladesh BD        0 2462867     8
## 10  1981 Bangladesh BD        0 2373595     9
## # … with 509,333 more rows
…
D.3.2 Population of a Country, JAPAN

japan <- filter(idb15, ISO2 == "JP") %>% select(YEAR, SEX, POP, AGE) %>%
  mutate(SEX = as_factor(SEX))
japan

## # A tibble: 33,633 × 4
##     YEAR SEX       POP   AGE
##    <dbl> <fct>   <dbl> <dbl>
##  1  1990 0     1228598     0
##  2  1990 0     1275792     1
##  3  1990 0     1318661     2
##  4  1990 0     1355679     3
##  5  1990 0     1388504     4
##  6  1990 0     1452576     5
##  7  1990 0     1494424     6
##  8  1990 0     1507634     7
##  9  1990 0     1515567     8
## 10  1990 0     1547527     9
## # … with 33,623 more rows

pop <- japan %>% group_by(YEAR, SEX) %>% summarize(POPULATION = sum(POP)) 

## `summarise()` has grouped output by 'YEAR'. You can override using the
## `.groups` argument.

pop

## # A tibble: 333 × 3
## # Groups:   YEAR [111]
##     YEAR SEX   POPULATION
##    <dbl> <fct>      <dbl>
##  1  1990 0      123537399
##  2  1990 1       60628417
##  3  1990 2       62908982
##  4  1991 0      123962538
##  5  1991 1       60832741
##  6  1991 2       63129797
##  7  1992 0      124378689
##  8  1992 1       61030495
##  9  1992 2       63348194
## 10  1993 0      124738157
## # … with 323 more rows
…
