B Appendix B Public Data | Data Analysis for Researchers 2021
…
df <- as_tibble(WDI(
  country = c("CN", "IN", "US", "ID","PK", "BR", "NG", "BD", "RU", "MX", "JP"), 
  indicator = "NY.GDP.PCAP.KD",
  start = 1960,
  end = 2020,
  extra = FALSE,
  cache = NULL,
  latest = NULL,
  language = "en"
))
df

## # A tibble: 671 × 5
##    country    iso2c iso3c  year NY.GDP.PCAP.KD
##    <chr>      <chr> <chr> <int>          <dbl>
##  1 Bangladesh BD    BGD    2020          1620.
##  2 Bangladesh BD    BGD    2019          1582.
##  3 Bangladesh BD    BGD    2018          1481.
##  4 Bangladesh BD    BGD    2017          1395.
##  5 Bangladesh BD    BGD    2016          1323.
##  6 Bangladesh BD    BGD    2015          1248.
##  7 Bangladesh BD    BGD    2014          1185.
##  8 Bangladesh BD    BGD    2013          1130.
##  9 Bangladesh BD    BGD    2012          1078.
## 10 Bangladesh BD    BGD    2011          1024.
## # … with 661 more rows
…
### More Examples

B.2.4.3 Search Indicators Related to “GDP”

as_tibble(WDIsearch(string = "gdp", field = "name", cache = NULL))

## # A tibble: 540 × 2
##    indicator            name                                                  
##    <chr>                <chr>                                                 
##  1 5.51.01.10.gdp       "Per capita GDP growth"                               
##  2 6.0.GDP_current      "GDP (current $)"                                     
##  3 6.0.GDP_growth       "GDP growth (annual %)"                               
##  4 6.0.GDP_usd          "GDP (constant 2005 $)"                               
##  5 6.0.GDPpc_constant   "GDP per capita, PPP (constant 2011 international $) "
##  6 BG.GSR.NFSV.GD.ZS    "Trade in services (% of GDP)"                        
##  7 BG.KAC.FNEI.GD.PP.ZS "Gross private capital flows (% of GDP, PPP)"         
##  8 BG.KAC.FNEI.GD.ZS    "Gross private capital flows (% of GDP)"              
##  9 BG.KLT.DINV.GD.PP.ZS "Gross foreign direct investment (% of GDP, PPP)"     
## 10 BG.KLT.DINV.GD.ZS    "Gross foreign direct investment (% of GDP)"          
## # … with 530 more rows
…
B.2.4.5 More Than One Indicator

dfp <- as_tibble(WDI(
  country = c("CN", "IN", "US", "ID","PK", "BR", "NG", "BD", "RU", "MX", "JP"), 
  indicator = c("NY.GDP.PCAP.KD","SP.POP.TOTL"),
  start = 1960,
  end = 2020,
  extra = FALSE,
  cache = NULL,
  latest = NULL,
  language = "en"
))
dfp

## # A tibble: 671 × 6
##    country    iso2c iso3c  year NY.GDP.PCAP.KD SP.POP.TOTL
##    <chr>      <chr> <chr> <int>          <dbl>       <dbl>
##  1 Bangladesh BD    BGD    1960           463.    48013505
##  2 Bangladesh BD    BGD    1961           478.    49362834
##  3 Bangladesh BD    BGD    1962           490.    50752150
##  4 Bangladesh BD    BGD    1963           474.    52202008
##  5 Bangladesh BD    BGD    1964           511.    53741721
##  6 Bangladesh BD    BGD    1965           504.    55385114
##  7 Bangladesh BD    BGD    1966           501.    57157651
##  8 Bangladesh BD    BGD    1967           476.    59034250
##  9 Bangladesh BD    BGD    1968           505.    60918452
## 10 Bangladesh BD    BGD    1969           497.    62679765
## # … with 661 more rows
…
B.2.4.5.1 All Countries

df_gdp_all <- as_tibble(WDI(
  country = "all", 
  indicator = c("NY.GDP.PCAP.KD","SP.POP.TOTL"),
  start = 1960,
  end = 2020,
  extra = FALSE,
  cache = NULL,
  latest = NULL,
  language = "en"
))
df_gdp_all

## # A tibble: 16,226 × 6
##    country     iso2c iso3c  year NY.GDP.PCAP.KD SP.POP.TOTL
##    <chr>       <chr> <chr> <int>          <dbl>       <dbl>
##  1 Afghanistan AF    AFG    1960             NA     8996967
##  2 Afghanistan AF    AFG    1961             NA     9169406
##  3 Afghanistan AF    AFG    1962             NA     9351442
##  4 Afghanistan AF    AFG    1963             NA     9543200
##  5 Afghanistan AF    AFG    1964             NA     9744772
##  6 Afghanistan AF    AFG    1965             NA     9956318
##  7 Afghanistan AF    AFG    1966             NA    10174840
##  8 Afghanistan AF    AFG    1967             NA    10399936
##  9 Afghanistan AF    AFG    1968             NA    10637064
## 10 Afghanistan AF    AFG    1969             NA    10893772
## # … with 16,216 more rows

df_gdp_all %>% filter(year == 2020) %>% arrange(desc(SP.POP.TOTL))

## # A tibble: 266 × 6
##    country                    iso2c iso3c  year NY.GDP.PCAP.KD SP.POP.TOTL
##    <chr>                      <chr> <chr> <int>          <dbl>       <dbl>
##  1 World                      1W    "WLD"  2020         10549.  7763932702
##  2 IDA & IBRD total           ZT    "IBT"  2020          5017.  6571053159
##  3 Low & middle income        XO    "LMY"  2020          4862.  6494812232
##  4 Middle income              XP    "MIC"  2020          5341.  5811279241
##  5 IBRD only                  XF    "IBD"  2020          6290.  4862446431
##  6 Early-demographic dividend V2    "EAR"  2020          3374.  3332103561
##  7 Lower middle income        XN    ""     2020          2297.  3318682068
##  8 Upper middle income        XT    ""     2020          9395.  2492597173
##  9 East Asia & Pacific        Z4    "EAS"  2020         11136.  2361517682
## 10 Late-demographic dividend  V3    "LTE"  2020          9711.  2316803603
## # … with 256 more rows

df_gdp_all %>% filter(year == 2020) %>% arrange(NY.GDP.PCAP.KD)

## # A tibble: 266 × 6
##    country                  iso2c iso3c  year NY.GDP.PCAP.KD SP.POP.TOTL
##    <chr>                    <chr> <chr> <int>          <dbl>       <dbl>
##  1 Burundi                  BI    BDI    2020           271.    11890781
##  2 Malawi                   MW    MWI    2020           394.    19129955
##  3 Central African Republic CF    CAF    2020           415.     4829764
##  4 Madagascar               MG    MDG    2020           442.    27691019
##  5 Somalia                  SO    SOM    2020           445.    15893219
##  6 Congo, Dem. Rep.         CD    COD    2020           505.    89561404
##  7 Niger                    NE    NER    2020           523.    24206636
##  8 Afghanistan              AF    AFG    2020           530.    38928341
##  9 Mozambique               MZ    MOZ    2020           575.    31255435
## 10 Liberia                  LR    LBR    2020           616.     5057677
## # … with 256 more rows

df_gdp_all %>% filter(year == 2020) %>% arrange(desc(NY.GDP.PCAP.KD))

## # A tibble: 266 × 6
##    country        iso2c iso3c  year NY.GDP.PCAP.KD SP.POP.TOTL
##    <chr>          <chr> <chr> <int>          <dbl>       <dbl>
##  1 Monaco         MC    MCO    2020        159222.       39244
##  2 Luxembourg     LU    LUX    2020        104879.      630419
##  3 Bermuda        BM    BMU    2020         99729.       63893
##  4 Switzerland    CH    CHE    2020         85685.     8636561
##  5 Ireland        IE    IRL    2020         78733.     4985674
##  6 Cayman Islands KY    CYM    2020         77959.       65720
##  7 Norway         NO    NOR    2020         75017.     5379475
##  8 Singapore      SG    SGP    2020         58982.     5685807
##  9 United States  US    USA    2020         58060.   331501080
## 10 Australia      AU    AUS    2020         58030.    25693267
## # … with 256 more rows

df_gdp_all %>% filter(year == 2020) %>% mutate(GDP = NY.GDP.PCAP.KD * SP.POP.TOTL) %>% arrange(desc(GDP))

## # A tibble: 266 × 7
##    country                   iso2c iso3c  year NY.GDP.PCAP.KD SP.POP.T…¹     GDP
##    <chr>                     <chr> <chr> <int>          <dbl>      <dbl>   <dbl>
##  1 World                     1W    "WLD"  2020         10549. 7763932702 8.19e13
##  2 High income               XD    ""     2020         40336. 1240684527 5.00e13
##  3 OECD members              OE    "OED"  2020         35869. 1372980201 4.92e13
##  4 Post-demographic dividend V4    "PST"  2020         41227. 1117278019 4.61e13
##  5 IDA & IBRD total          ZT    "IBT"  2020          5017. 6571053159 3.30e13
##  6 Low & middle income       XO    "LMY"  2020          4862. 6494812232 3.16e13
##  7 Middle income             XP    "MIC"  2020          5341. 5811279241 3.10e13
##  8 IBRD only                 XF    "IBD"  2020          6290. 4862446431 3.06e13
##  9 East Asia & Pacific       Z4    "EAS"  2020         11136. 2361517682 2.63e13
## 10 Upper middle income       XT    ""     2020          9395. 2492597173 2.34e13
## # … with 256 more rows, and abbreviated variable name ¹​SP.POP.TOTL

B.2.4.6 Gender

as_tibble(WDIsearch(string = "Gender", field = "name", cache = NULL))

## # A tibble: 382 × 2
##    indicator            name                                                    
##    <chr>                <chr>                                                   
##  1 2.3_GIR.GPI          "Gender parity index for gross intake ratio in grade 1" 
##  2 2.6_PCR.GPI          "Gender parity index for primary completion rate "      
##  3 5.51.01.07.gender    "Gender equality"                                       
##  4 BI.EMP.PWRK.PB.FE.ZS "Public sector employment, as a share of paid employmen…
##  5 BI.EMP.PWRK.PB.MA.ZS "Public sector employment, as a share of paid employmen…
##  6 BI.EMP.TOTL.PB.FE.ZS "Public sector employment, as a share of total employme…
##  7 BI.EMP.TOTL.PB.MA.ZS "Public sector employment, as a share of total employme…
##  8 BI.WAG.PREM.PB.FE    "Public sector wage premium, by gender: Female (compare…
##  9 BI.WAG.PREM.PB.FM    "P-Value: Public sector wage premium, by gender (compar…
## 10 BI.WAG.PREM.PB.FM.ED "P-Value: Gender wage premium in the public sector, by …
## # … with 372 more rows

as_tibble(WDIsearch(string = "Females", field = "name", cache = NULL))

## # A tibble: 69 × 2
##    indicator            name                                                    
##    <chr>                <chr>                                                   
##  1 BI.PWK.PRVS.CK.FE.ZS Females, as a share of private paid employees by occupa…
##  2 BI.PWK.PRVS.EO.FE.ZS Females, as a share of private paid employees by occupa…
##  3 BI.PWK.PRVS.FE.Q1.ZS Females, as a share of private paid employees by wage q…
##  4 BI.PWK.PRVS.FE.Q2.ZS Females, as a share of private paid employees by wage q…
##  5 BI.PWK.PRVS.FE.Q3.ZS Females, as a share of private paid employees by wage q…
##  6 BI.PWK.PRVS.FE.Q4.ZS Females, as a share of private paid employees by wage q…
##  7 BI.PWK.PRVS.FE.Q5.ZS Females, as a share of private paid employees by wage q…
##  8 BI.PWK.PRVS.FE.ZS    Females, as a share of private paid employees           
##  9 BI.PWK.PRVS.PN.FE.ZS Females, as a share of private paid employees by occupa…
## 10 BI.PWK.PRVS.SN.FE.ZS Females, as a share of private paid employees by occupa…
## # … with 59 more rows
…
##              indicator                                          name
## 1636 BI.PWK.PRVS.FE.ZS Females, as a share of private paid employees

WDIsearch(string = "BI.PWK.PUBS.FE.ZS", field = "indicator", cache = NULL)

##              indicator                                         name
## 1659 BI.PWK.PUBS.FE.ZS Females, as a share of public paid employees

# Rename indicators on the fly
dfwe <- as_tibble(WDI(country = c("CN", "IN", "US", "ID","PK", "BR", "NG", "BD", "RU", "MX", "JP"), 
               indicator = c('women_private_sector' = 'BI.PWK.PRVS.FE.ZS',
                                  'women_public_sector' = 'BI.PWK.PUBS.FE.ZS')))
dfwe

## # A tibble: 231 × 6
##    country    iso2c iso3c  year women_private_sector women_public_sector
##    <chr>      <chr> <chr> <int>                <dbl>               <dbl>
##  1 Bangladesh BD    BGD    2000               NA                  NA    
##  2 Bangladesh BD    BGD    2001               NA                  NA    
##  3 Bangladesh BD    BGD    2002               NA                  NA    
##  4 Bangladesh BD    BGD    2003                0.193               0.231
##  5 Bangladesh BD    BGD    2004               NA                  NA    
##  6 Bangladesh BD    BGD    2005               NA                  NA    
##  7 Bangladesh BD    BGD    2006               NA                  NA    
##  8 Bangladesh BD    BGD    2007               NA                  NA    
##  9 Bangladesh BD    BGD    2008               NA                  NA    
## 10 Bangladesh BD    BGD    2009               NA                  NA    
## # … with 221 more rows
…
Let us look at the first sheet.

The column names are in the 5th row.

The country data starts from the 7th row.

Zimbabue is at the last row.

library(readxl)
wb_countries_tmp <- read_excel("data/CLASS.xlsx", sheet = 1, skip = 0, n_max =219) 
wb_countries <- wb_countries_tmp %>% 
  select(country = Economy, iso3c = Code, region = Region, income = `Income group`, lending = "Lending category", other = "Other (EMU or HIPC)")
wb_countries

## # A tibble: 218 × 6
##    country              iso3c region                     income    lending other
##    <chr>                <chr> <chr>                      <chr>     <chr>   <chr>
##  1 Aruba                ABW   Latin America & Caribbean  High inc… <NA>    <NA> 
##  2 Afghanistan          AFG   South Asia                 Low inco… IDA     HIPC 
##  3 Angola               AGO   Sub-Saharan Africa         Lower mi… IBRD    <NA> 
##  4 Albania              ALB   Europe & Central Asia      Upper mi… IBRD    <NA> 
##  5 Andorra              AND   Europe & Central Asia      High inc… <NA>    <NA> 
##  6 United Arab Emirates ARE   Middle East & North Africa High inc… <NA>    <NA> 
##  7 Argentina            ARG   Latin America & Caribbean  Upper mi… IBRD    <NA> 
##  8 Armenia              ARM   Europe & Central Asia      Upper mi… IBRD    <NA> 
##  9 American Samoa       ASM   East Asia & Pacific        Upper mi… <NA>    <NA> 
## 10 Antigua and Barbuda  ATG   Latin America & Caribbean  High inc… IBRD    <NA> 
## # … with 208 more rows
…
readxl: https://readxl.tidyverse.org

Help: read_excel, read_xls, read_xlsx

Regions start from the 227th row.

Regions end at the 272th row.

wb_regions_tmp <- read_excel("data/CLASS.xlsx", sheet = 1, skip = 0, n_max =266) %>% 
  slice(-(1:220))
wb_regions <- wb_regions_tmp %>% 
  select(region = Economy, iso3c = Code) %>% drop_na()
wb_regions

## # A tibble: 45 × 2
##    region                                        iso3c
##    <chr>                                         <chr>
##  1 Caribbean small states                        CSS  
##  2 Central Europe and the Baltics                CEB  
##  3 Early-demographic dividend                    EAR  
##  4 East Asia & Pacific                           EAS  
##  5 East Asia & Pacific (excluding high income)   EAP  
##  6 East Asia & Pacific (IDA & IBRD)              TEA  
##  7 Euro area                                     EMU  
##  8 Europe & Central Asia                         ECS  
##  9 Europe & Central Asia (excluding high income) ECA  
## 10 Europe & Central Asia (IDA & IBRD)            TEC  
## # … with 35 more rows
…
