Chapter 8 Topics in Exploratory Data Analysis II | Data Analysis for Researchers
…
Since it is easier to handle data and we add many columns later, we shorten the column names.

iris_tbl <- as_tibble(iris) #%>%
colnames(iris_tbl) <- c("sl", "sw", "pl", "pw", "species")
#rename(sl = Sepal.Length, sw = Sepal.Width, pl = Petal.Length, pw = Petal.Width, species = Species)
iris_tbl

## # A tibble: 150 × 5
##       sl    sw    pl    pw species
##    <dbl> <dbl> <dbl> <dbl> <fct>  
##  1   5.1   3.5   1.4   0.2 setosa 
##  2   4.9   3     1.4   0.2 setosa 
##  3   4.7   3.2   1.3   0.2 setosa 
##  4   4.6   3.1   1.5   0.2 setosa 
##  5   5     3.6   1.4   0.2 setosa 
##  6   5.4   3.9   1.7   0.4 setosa 
##  7   4.6   3.4   1.4   0.3 setosa 
##  8   5     3.4   1.5   0.2 setosa 
##  9   4.4   2.9   1.4   0.2 setosa 
## 10   4.9   3.1   1.5   0.1 setosa 
## # … with 140 more rows
…
8.1.3 Binary classification

Let us set a numerical marker 1 to virginica.

iris_tbl2ext <- iris_tbl2 %>% 
  mutate(virginica = as.numeric(species == 'virginica'))
iris_tbl2ext %>% arrange(-virginica)

## # A tibble: 100 × 6
##       sl    sw    pl    pw species   virginica
##    <dbl> <dbl> <dbl> <dbl> <fct>         <dbl>
##  1   6.3   3.3   6     2.5 virginica         1
##  2   5.8   2.7   5.1   1.9 virginica         1
##  3   7.1   3     5.9   2.1 virginica         1
##  4   6.3   2.9   5.6   1.8 virginica         1
##  5   6.5   3     5.8   2.2 virginica         1
##  6   7.6   3     6.6   2.1 virginica         1
##  7   4.9   2.5   4.5   1.7 virginica         1
##  8   7.3   2.9   6.3   1.8 virginica         1
##  9   6.7   2.5   5.8   1.8 virginica         1
## 10   7.2   3.6   6.1   2.5 virginica         1
## # … with 90 more rows
…
iris_tbl2ext %>% group_by(species) %>% 
  summarize(min = quantile(sl)[1], `25%` = quantile(sl)[2], `55%` = quantile(sl)[3], `75%` = quantile(sl)[4], max = quantile(sl)[5])

## # A tibble: 2 × 6
##   species      min `25%` `55%` `75%`   max
##   <fct>      <dbl> <dbl> <dbl> <dbl> <dbl>
## 1 versicolor   4.9  5.6    5.9   6.3   7  
## 2 virginica    4.9  6.22   6.5   6.9   7.9

By the boxplot, the value between 6.225 and 6.3 can be a candidate. So let us take 6.263.

iris_tbl2ext <- iris_tbl2ext %>% mutate(v0 = as.integer(sl > 6.263))
iris_tbl2ext

## # A tibble: 100 × 7
##       sl    sw    pl    pw species    virginica    v0
##    <dbl> <dbl> <dbl> <dbl> <fct>          <dbl> <int>
##  1   7     3.2   4.7   1.4 versicolor         0     1
##  2   6.4   3.2   4.5   1.5 versicolor         0     1
##  3   6.9   3.1   4.9   1.5 versicolor         0     1
##  4   5.5   2.3   4     1.3 versicolor         0     0
##  5   6.5   2.8   4.6   1.5 versicolor         0     1
##  6   5.7   2.8   4.5   1.3 versicolor         0     0
##  7   6.3   3.3   4.7   1.6 versicolor         0     1
##  8   4.9   2.4   3.3   1   versicolor         0     0
##  9   6.6   2.9   4.6   1.3 versicolor         0     1
## 10   5.2   2.7   3.9   1.4 versicolor         0     0
## # … with 90 more rows
…
iris_tbl2ext_1 <- iris_tbl2ext %>% 
  add_predictions(iris_mod1, var = "pred_1", type = "response") %>% 
  add_residuals(iris_mod1, var = "resid_1") %>%
  mutate(v1 = as.integer(pred_1 >= 0.5))
iris_tbl2ext_1  %>% arrange(desc(sl))

## # A tibble: 100 × 10
##       sl    sw    pl    pw species   virginica    v0 pred_1 resid_1    v1
##    <dbl> <dbl> <dbl> <dbl> <fct>         <dbl> <int>  <dbl>   <dbl> <int>
##  1   7.9   3.8   6.4   2   virginica         1     1  0.965  -2.33      1
##  2   7.7   3.8   6.7   2.2 virginica         1     1  0.949  -1.93      1
##  3   7.7   2.6   6.9   2.3 virginica         1     1  0.949  -1.93      1
##  4   7.7   2.8   6.7   2   virginica         1     1  0.949  -1.93      1
##  5   7.7   3     6.1   2.3 virginica         1     1  0.949  -1.93      1
##  6   7.6   3     6.6   2.1 virginica         1     1  0.939  -1.73      1
##  7   7.4   2.8   6.1   1.9 virginica         1     1  0.911  -1.32      1
##  8   7.3   2.9   6.3   1.8 virginica         1     1  0.893  -1.12      1
##  9   7.2   3.6   6.1   2.5 virginica         1     1  0.872  -0.922     1
## 10   7.2   3.2   6     1.8 virginica         1     1  0.872  -0.922     1
## # … with 90 more rows
…
iris_mod2 <-iris_tbl2ext %>% glm(virginica~sw, family = binomial, .)
iris_mod3 <-iris_tbl2ext %>% glm(virginica~pl, family = binomial, .)
iris_mod4 <-iris_tbl2ext %>% glm(virginica~pw, family = binomial, .)

iris_tbl2ext_one <- iris_tbl2ext_1 %>% 
  add_predictions(iris_mod2, var = "pred_2", type = "response") %>% 
  mutate(v2 = as.integer(pred_2 >= 0.5)) %>%
  add_predictions(iris_mod3, var = "pred_3", type = "response") %>% 
  mutate(v3 = as.integer(pred_3 >= 0.5)) %>%
  add_predictions(iris_mod4, var = "pred_4", type = "response") %>% 
  mutate(v4 = as.integer(pred_4 >= 0.5))
iris_tbl2ext_one  %>% arrange(desc(sl))

## # A tibble: 100 × 16
##       sl    sw    pl    pw species   virginica    v0 pred_1 resid_1    v1 pred_2
##    <dbl> <dbl> <dbl> <dbl> <fct>         <dbl> <int>  <dbl>   <dbl> <int>  <dbl>
##  1   7.9   3.8   6.4   2   virginica         1     1  0.965  -2.33      1  0.874
##  2   7.7   3.8   6.7   2.2 virginica         1     1  0.949  -1.93      1  0.874
##  3   7.7   2.6   6.9   2.3 virginica         1     1  0.949  -1.93      1  0.362
##  4   7.7   2.8   6.7   2   virginica         1     1  0.949  -1.93      1  0.462
##  5   7.7   3     6.1   2.3 virginica         1     1  0.949  -1.93      1  0.566
##  6   7.6   3     6.6   2.1 virginica         1     1  0.939  -1.73      1  0.566
##  7   7.4   2.8   6.1   1.9 virginica         1     1  0.911  -1.32      1  0.462
##  8   7.3   2.9   6.3   1.8 virginica         1     1  0.893  -1.12      1  0.515
##  9   7.2   3.6   6.1   2.5 virginica         1     1  0.872  -0.922     1  0.821
## 10   7.2   3.2   6     1.8 virginica         1     1  0.872  -0.922     1  0.665
## # … with 90 more rows, and 5 more variables: v2 <int>, pred_3 <dbl>, v3 <int>,
## #   pred_4 <dbl>, v4 <int>
…
  add_predictions(iris_mod12, var = "pred_12", type = "response") %>% 
  mutate(v12 = as.integer(pred_12 >= 0.5)) %>%
  add_predictions(iris_mod13, var = "pred_13", type = "response") %>% 
  mutate(v13 = as.integer(pred_13 >= 0.5)) %>%
  add_predictions(iris_mod14, var = "pred_14", type = "response") %>% 
  mutate(v14 = as.integer(pred_14 >= 0.5)) %>%
  add_predictions(iris_mod23, var = "pred_23", type = "response") %>% 
  mutate(v23 = as.integer(pred_23 >= 0.5)) %>%
  add_predictions(iris_mod24, var = "pred_24", type = "response") %>% 
  mutate(v24 = as.integer(pred_24 >= 0.5)) %>%
  add_predictions(iris_mod34, var = "pred_34", type = "response") %>% 
  mutate(v34 = as.integer(pred_34 >= 0.5))
iris_tbl2ext_two  %>% arrange(desc(sl))

## # A tibble: 100 × 28
##       sl    sw    pl    pw species   virginica    v0 pred_1 resid_1    v1 pred_2
##    <dbl> <dbl> <dbl> <dbl> <fct>         <dbl> <int>  <dbl>   <dbl> <int>  <dbl>
##  1   7.9   3.8   6.4   2   virginica         1     1  0.965  -2.33      1  0.874
##  2   7.7   3.8   6.7   2.2 virginica         1     1  0.949  -1.93      1  0.874
##  3   7.7   2.6   6.9   2.3 virginica         1     1  0.949  -1.93      1  0.362
##  4   7.7   2.8   6.7   2   virginica         1     1  0.949  -1.93      1  0.462
##  5   7.7   3     6.1   2.3 virginica         1     1  0.949  -1.93      1  0.566
##  6   7.6   3     6.6   2.1 virginica         1     1  0.939  -1.73      1  0.566
##  7   7.4   2.8   6.1   1.9 virginica         1     1  0.911  -1.32      1  0.462
##  8   7.3   2.9   6.3   1.8 virginica         1     1  0.893  -1.12      1  0.515
##  9   7.2   3.6   6.1   2.5 virginica         1     1  0.872  -0.922     1  0.821
## 10   7.2   3.2   6     1.8 virginica         1     1  0.872  -0.922     1  0.665
## # … with 90 more rows, and 17 more variables: v2 <int>, pred_3 <dbl>, v3 <int>,
## #   pred_4 <dbl>, v4 <int>, pred_12 <dbl>, v12 <int>, pred_13 <dbl>, v13 <int>,
## #   pred_14 <dbl>, v14 <int>, pred_23 <dbl>, v23 <int>, pred_24 <dbl>,
## #   v24 <int>, pred_34 <dbl>, v34 <int>
…
iris_tbl2ext_all <- iris_tbl2ext_two %>% 
  add_predictions(iris_mod123, var = "pred_123", type = "response") %>% 
  mutate(v123 = as.integer(pred_123 >= 0.5)) %>%
  add_predictions(iris_mod124, var = "pred_124", type = "response") %>% 
  mutate(v124 = as.integer(pred_124 >= 0.5)) %>%
  add_predictions(iris_mod134, var = "pred_134", type = "response") %>% 
  mutate(v134 = as.integer(pred_134 >= 0.5)) %>%
  add_predictions(iris_mod234, var = "pred_234", type = "response") %>% 
  mutate(v234 = as.integer(pred_234 >= 0.5)) %>%
  add_predictions(iris_mod1234, var = "pred_1234", type = "response") %>% 
  mutate(v1234 = as.integer(pred_1234 >= 0.5)) 
iris_tbl2ext_all  %>% arrange(desc(sl))

## # A tibble: 100 × 38
##       sl    sw    pl    pw species   virginica    v0 pred_1 resid_1    v1 pred_2
##    <dbl> <dbl> <dbl> <dbl> <fct>         <dbl> <int>  <dbl>   <dbl> <int>  <dbl>
##  1   7.9   3.8   6.4   2   virginica         1     1  0.965  -2.33      1  0.874
##  2   7.7   3.8   6.7   2.2 virginica         1     1  0.949  -1.93      1  0.874
##  3   7.7   2.6   6.9   2.3 virginica         1     1  0.949  -1.93      1  0.362
##  4   7.7   2.8   6.7   2   virginica         1     1  0.949  -1.93      1  0.462
##  5   7.7   3     6.1   2.3 virginica         1     1  0.949  -1.93      1  0.566
##  6   7.6   3     6.6   2.1 virginica         1     1  0.939  -1.73      1  0.566
##  7   7.4   2.8   6.1   1.9 virginica         1     1  0.911  -1.32      1  0.462
##  8   7.3   2.9   6.3   1.8 virginica         1     1  0.893  -1.12      1  0.515
##  9   7.2   3.6   6.1   2.5 virginica         1     1  0.872  -0.922     1  0.821
## 10   7.2   3.2   6     1.8 virginica         1     1  0.872  -0.922     1  0.665
## # … with 90 more rows, and 27 more variables: v2 <int>, pred_3 <dbl>, v3 <int>,
## #   pred_4 <dbl>, v4 <int>, pred_12 <dbl>, v12 <int>, pred_13 <dbl>, v13 <int>,
## #   pred_14 <dbl>, v14 <int>, pred_23 <dbl>, v23 <int>, pred_24 <dbl>,
## #   v24 <int>, pred_34 <dbl>, v34 <int>, pred_123 <dbl>, v123 <int>,
## #   pred_124 <dbl>, v124 <int>, pred_134 <dbl>, v134 <int>, pred_234 <dbl>,
## #   v234 <int>, pred_1234 <dbl>, v1234 <int>
…
RMSE

0.18

0.20

0.16

0.15

0.14

iris_tbl2ext_all %>% select(virginica, v0, v1, v2, v3, v4, v12, v13, v14, v23, v24, v34, v123, v124, v134, v234, v1234)

## # A tibble: 100 × 17
##    virginica    v0    v1    v2    v3    v4   v12   v13   v14   v23   v24   v34
##        <dbl> <int> <int> <int> <int> <int> <int> <int> <int> <int> <int> <int>
##  1         0     1     1     1     0     0     1     0     0     0     0     0
##  2         0     1     1     1     0     0     1     0     0     0     0     0
##  3         0     1     1     1     1     0     1     0     0     0     0     0
##  4         0     0     0     0     0     0     0     0     0     0     0     0
##  5         0     1     1     0     0     0     1     0     0     0     0     0
##  6         0     0     0     0     0     0     0     0     0     0     0     0
##  7         0     1     1     1     0     0     1     0     0     0     0     0
##  8         0     0     0     0     0     0     0     0     0     0     0     0
##  9         0     1     1     1     0     0     1     0     0     0     0     0
## 10         0     0     0     0     0     0     0     0     0     0     0     0
## # … with 90 more rows, and 5 more variables: v123 <int>, v124 <int>,
## #   v134 <int>, v234 <int>, v1234 <int>
…
