Chapter 7 Topics in Exploratory Data Analysis I | Data Analysis for Researchers
…
WDI Indicators

NY.GDP.MKTP.CD: GDP (current US$)

SP.POP.TOTL: Population, total

AG.LND.TOTL.K2: Land area (sq. km)

wb <- as_tibble(WDI(country="all", 
                    indicator=c(gdp = "NY.GDP.MKTP.CD", pop = "SP.POP.TOTL", land = "AG.LND.TOTL.K2"),
                    start=1960, end=2020,
                    extra=TRUE))
wb

## # A tibble: 16,226 × 15
##    iso2c country     year status lastupda…¹      gdp    pop    land iso3c region
##    <chr> <chr>      <int> <chr>  <chr>         <dbl>  <dbl>   <dbl> <chr> <chr> 
##  1 1A    Arab World  1963 ""     2022-09-16 NA       1.00e8  1.36e7 ARB   Aggre…
##  2 1A    Arab World  1960 ""     2022-09-16 NA       9.22e7 NA      ARB   Aggre…
##  3 1A    Arab World  1971 ""     2022-09-16  4.98e10 1.25e8  1.36e7 ARB   Aggre…
##  4 1A    Arab World  1972 ""     2022-09-16  5.94e10 1.29e8  1.36e7 ARB   Aggre…
##  5 1A    Arab World  1961 ""     2022-09-16 NA       9.47e7  1.36e7 ARB   Aggre…
##  6 1A    Arab World  1962 ""     2022-09-16 NA       9.73e7  1.36e7 ARB   Aggre…
##  7 1A    Arab World  1975 ""     2022-09-16  1.58e11 1.40e8  1.36e7 ARB   Aggre…
##  8 1A    Arab World  1976 ""     2022-09-16  1.97e11 1.44e8  1.36e7 ARB   Aggre…
##  9 1A    Arab World  1973 ""     2022-09-16  7.53e10 1.32e8  1.36e7 ARB   Aggre…
## 10 1A    Arab World  1974 ""     2022-09-16  1.43e11 1.36e8  1.36e7 ARB   Aggre…
## # … with 16,216 more rows, 5 more variables: capital <chr>, longitude <chr>,
## #   latitude <chr>, income <chr>, lending <chr>, and abbreviated variable name
## #   ¹​lastupdated

wb_ag20 <- wb %>% filter(year == 2020 & region=="Aggregates")
wb_ag20

## # A tibble: 47 × 15
##    iso2c country  year status lastu…¹     gdp    pop   land iso3c region capital
##    <chr> <chr>   <int> <chr>  <chr>     <dbl>  <dbl>  <dbl> <chr> <chr>  <chr>  
##  1 1A    Arab W…  2020 ""     2022-0… 2.50e12 4.36e8 1.31e7 ARB   Aggre… ""     
##  2 1W    World    2020 ""     2022-0… 8.49e13 7.76e9 1.30e8 WLD   Aggre… ""     
##  3 4E    East A…  2020 ""     2022-0… 1.75e13 2.11e9 1.60e7 EAP   Aggre… ""     
##  4 7E    Europe…  2020 ""     2022-0… 2.98e12 4.01e8 2.24e7 ECA   Aggre… ""     
##  5 8S    South …  2020 ""     2022-0… 3.48e12 1.86e9 4.77e6 SAS   Aggre… ""     
##  6 B8    Centra…  2020 ""     2022-0… 1.65e12 1.02e8 1.11e6 CEB   Aggre… ""     
##  7 EU    Europe…  2020 ""     2022-0… 1.53e13 4.47e8 4.00e6 EUU   Aggre… ""     
##  8 F1    Fragil…  2020 ""     2022-0… 1.68e12 9.61e8 2.05e7 FCS   Aggre… ""     
##  9 OE    OECD m…  2020 ""     2022-0… 5.23e13 1.37e9 3.55e7 OED   Aggre… ""     
## 10 S1    Small …  2020 ""     2022-0… 4.52e11 4.19e7 2.50e6 SST   Aggre… ""     
## # … with 37 more rows, 4 more variables: longitude <chr>, latitude <chr>,
## #   income <chr>, lending <chr>, and abbreviated variable name ¹​lastupdated
…
7.1.4.2 Conclusion

Regions which have large population have large GDP.

It was also found that the larger the region, the more populated the region. This suggests that the GPs of regions with large regions and large populations are significant.

This result suggests a positive relationship between population and economic activity.

7.2 A time series data of World from 1960 to 2020

wb_world <- wb %>% filter(country=="World") %>% arrange(year)
wb_world

## # A tibble: 61 × 15
##    iso2c country  year status lastupdated     gdp       pop    land iso3c region
##    <chr> <chr>   <int> <chr>  <chr>         <dbl>     <dbl>   <dbl> <chr> <chr> 
##  1 1W    World    1960 ""     2022-09-16  1.39e12    3.03e9 NA      WLD   Aggre…
##  2 1W    World    1961 ""     2022-09-16  1.45e12    3.07e9  1.30e8 WLD   Aggre…
##  3 1W    World    1962 ""     2022-09-16  1.55e12    3.12e9  1.30e8 WLD   Aggre…
##  4 1W    World    1963 ""     2022-09-16  1.67e12    3.19e9  1.30e8 WLD   Aggre…
##  5 1W    World    1964 ""     2022-09-16  1.83e12    3.26e9  1.30e8 WLD   Aggre…
##  6 1W    World    1965 ""     2022-09-16  1.99e12    3.32e9  1.30e8 WLD   Aggre…
##  7 1W    World    1966 ""     2022-09-16  2.16e12    3.39e9  1.30e8 WLD   Aggre…
##  8 1W    World    1967 ""     2022-09-16  2.30e12    3.46e9  1.30e8 WLD   Aggre…
##  9 1W    World    1968 ""     2022-09-16  2.48e12    3.53e9  1.30e8 WLD   Aggre…
## 10 1W    World    1969 ""     2022-09-16  2.74e12    3.61e9  1.30e8 WLD   Aggre…
## # … with 51 more rows, and 5 more variables: capital <chr>, longitude <chr>,
## #   latitude <chr>, income <chr>, lending <chr>
…
wb_world_extra <- wb_world %>% mutate(diff_gdp = gdp - lag(gdp), diff_pop = pop - lag(pop)) 
wb_world_extra

## # A tibble: 61 × 17
##    iso2c country  year status lastupdated     gdp       pop    land iso3c region
##    <chr> <chr>   <int> <chr>  <chr>         <dbl>     <dbl>   <dbl> <chr> <chr> 
##  1 1W    World    1960 ""     2022-09-16  1.39e12    3.03e9 NA      WLD   Aggre…
##  2 1W    World    1961 ""     2022-09-16  1.45e12    3.07e9  1.30e8 WLD   Aggre…
##  3 1W    World    1962 ""     2022-09-16  1.55e12    3.12e9  1.30e8 WLD   Aggre…
##  4 1W    World    1963 ""     2022-09-16  1.67e12    3.19e9  1.30e8 WLD   Aggre…
##  5 1W    World    1964 ""     2022-09-16  1.83e12    3.26e9  1.30e8 WLD   Aggre…
##  6 1W    World    1965 ""     2022-09-16  1.99e12    3.32e9  1.30e8 WLD   Aggre…
##  7 1W    World    1966 ""     2022-09-16  2.16e12    3.39e9  1.30e8 WLD   Aggre…
##  8 1W    World    1967 ""     2022-09-16  2.30e12    3.46e9  1.30e8 WLD   Aggre…
##  9 1W    World    1968 ""     2022-09-16  2.48e12    3.53e9  1.30e8 WLD   Aggre…
## 10 1W    World    1969 ""     2022-09-16  2.74e12    3.61e9  1.30e8 WLD   Aggre…
## # … with 51 more rows, and 7 more variables: capital <chr>, longitude <chr>,
## #   latitude <chr>, income <chr>, lending <chr>, diff_gdp <dbl>, diff_pop <dbl>
…
WDIsearch(string = "EN.ATM.CO2E.KT", field = "indicator", short = FALSE)[[3]]

## [1] "Carbon dioxide emissions are those stemming from the burning of fossil fuels and the manufacture of cement. They include carbon dioxide produced during consumption of solid, liquid, and gas fuels and gas flaring."

wb_co2<- as_tibble(WDI(country="all", 
                   indicator=c(co2 = "EN.ATM.CO2E.KT",
                               gdp = "NY.GDP.MKTP.CD",
                               pop = "SP.POP.TOTL",
                               cereal = "AG.LND.CREL.HA"),
                   start=1960,
                   end=2020,
                   extra=TRUE))
wb_co2

## # A tibble: 16,226 × 16
##    iso2c country  year status lastu…¹   co2      gdp    pop  cereal iso3c region
##    <chr> <chr>   <int> <chr>  <chr>   <dbl>    <dbl>  <dbl>   <dbl> <chr> <chr> 
##  1 1A    Arab W…  1963 ""     2022-0…    NA NA       1.00e8  1.83e7 ARB   Aggre…
##  2 1A    Arab W…  1960 ""     2022-0…    NA NA       9.22e7 NA      ARB   Aggre…
##  3 1A    Arab W…  1971 ""     2022-0…    NA  4.98e10 1.25e8  1.70e7 ARB   Aggre…
##  4 1A    Arab W…  1972 ""     2022-0…    NA  5.94e10 1.29e8  1.88e7 ARB   Aggre…
##  5 1A    Arab W…  1961 ""     2022-0…    NA NA       9.47e7  1.67e7 ARB   Aggre…
##  6 1A    Arab W…  1962 ""     2022-0…    NA NA       9.73e7  1.73e7 ARB   Aggre…
##  7 1A    Arab W…  1975 ""     2022-0…    NA  1.58e11 1.40e8  1.87e7 ARB   Aggre…
##  8 1A    Arab W…  1976 ""     2022-0…    NA  1.97e11 1.44e8  2.01e7 ARB   Aggre…
##  9 1A    Arab W…  1973 ""     2022-0…    NA  7.53e10 1.32e8  1.78e7 ARB   Aggre…
## 10 1A    Arab W…  1974 ""     2022-0…    NA  1.43e11 1.36e8  1.84e7 ARB   Aggre…
## # … with 16,216 more rows, 5 more variables: capital <chr>, longitude <chr>,
## #   latitude <chr>, income <chr>, lending <chr>, and abbreviated variable name
## #   ¹​lastupdated

In the lecture the folloiwng is used. However, regions are overlapping and it seems to be better to chooose non-aggregated data.

wb_co2_16 <- wb_co2 %>% filter(year == 2016 & region=="Aggregates")
wb_co2_16

## # A tibble: 47 × 16
##    iso2c country   year status lastu…¹    co2     gdp    pop cereal iso3c region
##    <chr> <chr>    <int> <chr>  <chr>    <dbl>   <dbl>  <dbl>  <dbl> <chr> <chr> 
##  1 1A    Arab Wo…  2016 ""     2022-0… 1.84e6 2.50e12 4.04e8 2.95e7 ARB   Aggre…
##  2 1W    World     2016 ""     2022-0… 3.30e7 7.65e13 7.43e9 7.29e8 WLD   Aggre…
##  3 4E    East As…  2016 ""     2022-0… 1.13e7 1.36e13 2.06e9 1.60e8 EAP   Aggre…
##  4 7E    Europe …  2016 ""     2022-0… 2.78e6 2.78e12 3.93e8 9.76e7 ECA   Aggre…
##  5 8S    South A…  2016 ""     2022-0… 2.49e6 3.01e12 1.77e9 1.32e8 SAS   Aggre…
##  6 B8    Central…  2016 ""     2022-0… 6.56e5 1.32e12 1.03e8 2.24e7 CEB   Aggre…
##  7 EU    Europea…  2016 ""     2022-0… 2.91e6 1.39e13 4.45e8 5.41e7 EUU   Aggre…
##  8 F1    Fragile…  2016 ""     2022-0… 6.95e5 1.55e12 8.82e8 1.10e8 FCS   Aggre…
##  9 OE    OECD me…  2016 ""     2022-0… 1.20e7 4.84e13 1.34e9 1.65e8 OED   Aggre…
## 10 S1    Small s…  2016 ""     2022-0… 2.29e5 4.45e11 3.92e7 1.70e6 SST   Aggre…
## # … with 37 more rows, 5 more variables: capital <chr>, longitude <chr>,
## #   latitude <chr>, income <chr>, lending <chr>, and abbreviated variable name
## #   ¹​lastupdated

wb_co2 %>% filter(region != "Aggregates", !is.na(co2)) %>% 
  group_by(year) %>% summarize(n = n_distinct(country)) %>% arrange(desc(n), desc(year))

## # A tibble: 30 × 2
##     year     n
##    <int> <int>
##  1  2019   190
##  2  2018   190
##  3  2017   190
##  4  2016   190
##  5  2015   190
##  6  2014   190
##  7  2013   190
##  8  2012   190
##  9  2011   190
## 10  2010   190
## # … with 20 more rows

Let us choose non-aggregated data in 2018.

wb_co2_18 <- wb_co2 %>% filter(region != "Aggregates", !is.na(co2), year == 2018) 
wb_co2_18

## # A tibble: 190 × 16
##    iso2c country  year status lastu…¹    co2     gdp    pop  cereal iso3c region
##    <chr> <chr>   <int> <chr>  <chr>    <dbl>   <dbl>  <dbl>   <dbl> <chr> <chr> 
##  1 AD    Andorra  2018 ""     2022-0… 4.90e2 3.22e 9 7.70e4 NA      AND   Europ…
##  2 AE    United…  2018 ""     2022-0… 1.77e5 4.22e11 9.63e6  3.92e2 ARE   Middl…
##  3 AF    Afghan…  2018 ""     2022-0… 6.07e3 1.81e10 3.72e7  1.91e6 AFG   South…
##  4 AG    Antigu…  2018 ""     2022-0… 5.10e2 1.61e 9 9.63e4  2.4 e1 ATG   Latin…
##  5 AL    Albania  2018 ""     2022-0… 5.11e3 1.52e10 2.87e6  1.40e5 ALB   Europ…
##  6 AM    Armenia  2018 ""     2022-0… 5.71e3 1.25e10 2.95e6  1.27e5 ARM   Europ…
##  7 AO    Angola   2018 ""     2022-0… 2.40e4 7.78e10 3.08e7  3.06e6 AGO   Sub-S…
##  8 AR    Argent…  2018 ""     2022-0… 1.77e5 5.25e11 4.45e7  1.51e7 ARG   Latin…
##  9 AT    Austria  2018 ""     2022-0… 6.31e4 4.55e11 8.84e6  7.79e5 AUT   Europ…
## 10 AU    Austra…  2018 ""     2022-0… 3.87e5 1.43e12 2.50e7  1.66e7 AUS   East …
## # … with 180 more rows, 5 more variables: capital <chr>, longitude <chr>,
## #   latitude <chr>, income <chr>, lending <chr>, and abbreviated variable name
## #   ¹​lastupdated
…
7.3.2.1 We select regression model;

CO2 emission = c + a (GDP) + b (population)

(Omit land because of multicollinearity)

7.3.2.2 A time series data of World from 1960 to 2020

wb_co2_world <- wb_co2 %>% filter(country=="World")
wb_co2_world 

## # A tibble: 61 × 16
##    iso2c country  year status lastu…¹     co2     gdp    pop cereal iso3c region
##    <chr> <chr>   <int> <chr>  <chr>     <dbl>   <dbl>  <dbl>  <dbl> <chr> <chr> 
##  1 1W    World    1975 ""     2022-0… NA      5.98e12 4.06e9 5.73e8 WLD   Aggre…
##  2 1W    World    1977 ""     2022-0… NA      7.35e12 4.21e9 5.78e8 WLD   Aggre…
##  3 1W    World    1979 ""     2022-0… NA      1.01e13 4.36e9 5.70e8 WLD   Aggre…
##  4 1W    World    1976 ""     2022-0… NA      6.50e12 4.14e9 5.84e8 WLD   Aggre…
##  5 1W    World    1986 ""     2022-0… NA      1.52e13 4.92e9 5.89e8 WLD   Aggre…
##  6 1W    World    1978 ""     2022-0… NA      8.66e12 4.28e9 5.76e8 WLD   Aggre…
##  7 1W    World    1987 ""     2022-0… NA      1.73e13 5.01e9 5.73e8 WLD   Aggre…
##  8 1W    World    1980 ""     2022-0… NA      1.13e13 4.43e9 5.79e8 WLD   Aggre…
##  9 1W    World    1989 ""     2022-0… NA      2.02e13 5.19e9 5.90e8 WLD   Aggre…
## 10 1W    World    1990 ""     2022-0…  2.06e7 2.28e13 5.28e9 5.89e8 WLD   Aggre…
## # … with 51 more rows, 5 more variables: capital <chr>, longitude <chr>,
## #   latitude <chr>, income <chr>, lending <chr>, and abbreviated variable name
## #   ¹​lastupdated
…
wb_co2_world_extra <- wb_co2_world %>% 
  mutate(diff_co2 = co2 - lag(co2), diff_gdp = gdp - lag(gdp))
wb_co2_world_extra

## # A tibble: 61 × 18
##    iso2c country  year status lastu…¹     co2     gdp    pop cereal iso3c region
##    <chr> <chr>   <int> <chr>  <chr>     <dbl>   <dbl>  <dbl>  <dbl> <chr> <chr> 
##  1 1W    World    1975 ""     2022-0… NA      5.98e12 4.06e9 5.73e8 WLD   Aggre…
##  2 1W    World    1977 ""     2022-0… NA      7.35e12 4.21e9 5.78e8 WLD   Aggre…
##  3 1W    World    1979 ""     2022-0… NA      1.01e13 4.36e9 5.70e8 WLD   Aggre…
##  4 1W    World    1976 ""     2022-0… NA      6.50e12 4.14e9 5.84e8 WLD   Aggre…
##  5 1W    World    1986 ""     2022-0… NA      1.52e13 4.92e9 5.89e8 WLD   Aggre…
##  6 1W    World    1978 ""     2022-0… NA      8.66e12 4.28e9 5.76e8 WLD   Aggre…
##  7 1W    World    1987 ""     2022-0… NA      1.73e13 5.01e9 5.73e8 WLD   Aggre…
##  8 1W    World    1980 ""     2022-0… NA      1.13e13 4.43e9 5.79e8 WLD   Aggre…
##  9 1W    World    1989 ""     2022-0… NA      2.02e13 5.19e9 5.90e8 WLD   Aggre…
## 10 1W    World    1990 ""     2022-0…  2.06e7 2.28e13 5.28e9 5.89e8 WLD   Aggre…
## # … with 51 more rows, 7 more variables: capital <chr>, longitude <chr>,
## #   latitude <chr>, income <chr>, lending <chr>, diff_co2 <dbl>,
## #   diff_gdp <dbl>, and abbreviated variable name ¹​lastupdated
…
7.4 Regression 3: CO2 emission (Standardization)

Prof. Kaizoji provided a data in csv format in Moodle and use scale function to standardize the data, let us proceed one step by one step.

He starts with a WDI data in 2016 and use the aggregated part. There may be arguments on the set of data, let us use the same one.

He defines variance in his slides, and the codes below uses unbiased variance. The difference is minor.

 wb_co2

## # A tibble: 16,226 × 16
##    iso2c country  year status lastu…¹   co2      gdp    pop  cereal iso3c region
##    <chr> <chr>   <int> <chr>  <chr>   <dbl>    <dbl>  <dbl>   <dbl> <chr> <chr> 
##  1 1A    Arab W…  1963 ""     2022-0…    NA NA       1.00e8  1.83e7 ARB   Aggre…
##  2 1A    Arab W…  1960 ""     2022-0…    NA NA       9.22e7 NA      ARB   Aggre…
##  3 1A    Arab W…  1971 ""     2022-0…    NA  4.98e10 1.25e8  1.70e7 ARB   Aggre…
##  4 1A    Arab W…  1972 ""     2022-0…    NA  5.94e10 1.29e8  1.88e7 ARB   Aggre…
##  5 1A    Arab W…  1961 ""     2022-0…    NA NA       9.47e7  1.67e7 ARB   Aggre…
##  6 1A    Arab W…  1962 ""     2022-0…    NA NA       9.73e7  1.73e7 ARB   Aggre…
##  7 1A    Arab W…  1975 ""     2022-0…    NA  1.58e11 1.40e8  1.87e7 ARB   Aggre…
##  8 1A    Arab W…  1976 ""     2022-0…    NA  1.97e11 1.44e8  2.01e7 ARB   Aggre…
##  9 1A    Arab W…  1973 ""     2022-0…    NA  7.53e10 1.32e8  1.78e7 ARB   Aggre…
## 10 1A    Arab W…  1974 ""     2022-0…    NA  1.43e11 1.36e8  1.84e7 ARB   Aggre…
## # … with 16,216 more rows, 5 more variables: capital <chr>, longitude <chr>,
## #   latitude <chr>, income <chr>, lending <chr>, and abbreviated variable name
## #   ¹​lastupdated

co2_ag16 <- wb_co2 %>% filter(year == 2016, region=="Aggregates") %>%
  select(iso2c, co2, gdp, pop, cereal) %>% drop_na()
co2_ag16

## # A tibble: 46 × 5
##    iso2c       co2     gdp        pop    cereal
##    <chr>     <dbl>   <dbl>      <dbl>     <dbl>
##  1 1A     1838603. 2.50e12  404042892  29526231
##  2 1W    33018556. 7.65e13 7433650819 728520338
##  3 4E    11308839. 1.36e13 2062250022 159822459
##  4 7E     2784816. 2.78e12  392836210  97557116
##  5 8S     2491070. 3.01e12 1771187426 132268829
##  6 B8      655580. 1.32e12  102994278  22398322
##  7 EU     2905110. 1.39e13  445487730  54059754
##  8 F1      694941. 1.55e12  881938038 110301901
##  9 OE    11968660. 4.84e13 1341783391 165276397
## 10 S1      229110. 4.45e11   39198032   1700592
## # … with 36 more rows

co2_al16_std <- co2_ag16 %>% mutate(st_co2 = (co2 - mean(co2))/sd(co2),
                                    st_gdp = (gdp - mean(gdp))/sd(gdp),
                                    st_pop = (pop - mean(pop))/sd(pop),
                                    st_cereal = (cereal - mean(cereal))/sd(cereal))
co2_al16_std

## # A tibble: 46 × 9
##    iso2c       co2     gdp        pop    cereal st_co2 st_gdp st_pop st_cereal
##    <chr>     <dbl>   <dbl>      <dbl>     <dbl>  <dbl>  <dbl>  <dbl>     <dbl>
##  1 1A     1838603. 2.50e12  404042892  29526231 -0.534 -0.569 -0.633   -0.735 
##  2 1W    33018556. 7.65e13 7433650819 728520338  3.55   3.93   3.28     3.50  
##  3 4E    11308839. 1.36e13 2062250022 159822459  0.706  0.106  0.291    0.0552
##  4 7E     2784816. 2.78e12  392836210  97557116 -0.410 -0.552 -0.640   -0.322 
##  5 8S     2491070. 3.01e12 1771187426 132268829 -0.448 -0.538  0.128   -0.112 
##  6 B8      655580. 1.32e12  102994278  22398322 -0.689 -0.641 -0.801   -0.778 
##  7 EU     2905110. 1.39e13  445487730  54059754 -0.394  0.123 -0.610   -0.586 
##  8 F1      694941. 1.55e12  881938038 110301901 -0.683 -0.627 -0.367   -0.245 
##  9 OE    11968660. 4.84e13 1341783391 165276397  0.792  2.22  -0.111    0.0882
## 10 S1      229110. 4.45e11   39198032   1700592 -0.744 -0.694 -0.837   -0.903 
## # … with 36 more rows

co2_al16_scaled <- co2_ag16 %>% mutate(st_co2 = scale(co2),
                                    st_gdp = scale(gdp),
                                    st_pop = scale(pop),
                                    st_cereal = scale(cereal))
co2_al16_scaled 

## # A tibble: 46 × 9
##    iso2c       co2     gdp        pop    cereal st_co2…¹ st_gd…² st_po…³ st_ce…⁴
##    <chr>     <dbl>   <dbl>      <dbl>     <dbl>    <dbl>   <dbl>   <dbl>   <dbl>
##  1 1A     1838603. 2.50e12  404042892  29526231   -0.534  -0.569  -0.633 -0.735 
##  2 1W    33018556. 7.65e13 7433650819 728520338    3.55    3.93    3.28   3.50  
##  3 4E    11308839. 1.36e13 2062250022 159822459    0.706   0.106   0.291  0.0552
##  4 7E     2784816. 2.78e12  392836210  97557116   -0.410  -0.552  -0.640 -0.322 
##  5 8S     2491070. 3.01e12 1771187426 132268829   -0.448  -0.538   0.128 -0.112 
##  6 B8      655580. 1.32e12  102994278  22398322   -0.689  -0.641  -0.801 -0.778 
##  7 EU     2905110. 1.39e13  445487730  54059754   -0.394   0.123  -0.610 -0.586 
##  8 F1      694941. 1.55e12  881938038 110301901   -0.683  -0.627  -0.367 -0.245 
##  9 OE    11968660. 4.84e13 1341783391 165276397    0.792   2.22   -0.111  0.0882
## 10 S1      229110. 4.45e11   39198032   1700592   -0.744  -0.694  -0.837 -0.903 
## # … with 36 more rows, and abbreviated variable names ¹​st_co2[,1], ²​st_gdp[,1],
## #   ³​st_pop[,1], ⁴​st_cereal[,1]

co2_ag16 %>% select(-1) %>% scale() %>% as_tibble()

## # A tibble: 46 × 4
##       co2    gdp    pop  cereal
##     <dbl>  <dbl>  <dbl>   <dbl>
##  1 -0.534 -0.569 -0.633 -0.735 
##  2  3.55   3.93   3.28   3.50  
##  3  0.706  0.106  0.291  0.0552
##  4 -0.410 -0.552 -0.640 -0.322 
##  5 -0.448 -0.538  0.128 -0.112 
##  6 -0.689 -0.641 -0.801 -0.778 
##  7 -0.394  0.123 -0.610 -0.586 
##  8 -0.683 -0.627 -0.367 -0.245 
##  9  0.792  2.22  -0.111  0.0882
## 10 -0.744 -0.694 -0.837 -0.903 
## # … with 36 more rows
…
